<?xml version="1.0" encoding="UTF-8" standalone="no"?>
<!-- Created with Inkscape (http://www.inkscape.org/) -->

<svg
   width="22.655075mm"
   height="14.20179mm"
   viewBox="0 0 22.655075 14.20179"
   version="1.1"
   id="svg1"
   inkscape:version="1.3.2 (1:1.3.2+202311252150+091e20ef0f)"
   sodipodi:docname="bench.svg"
   xmlns:inkscape="http://www.inkscape.org/namespaces/inkscape"
   xmlns:sodipodi="http://sodipodi.sourceforge.net/DTD/sodipodi-0.dtd"
   xmlns="http://www.w3.org/2000/svg"
   xmlns:svg="http://www.w3.org/2000/svg">
  <sodipodi:namedview
     id="namedview1"
     pagecolor="#ffffff"
     bordercolor="#000000"
     borderopacity="0.25"
     inkscape:showpageshadow="2"
     inkscape:pageopacity="0.0"
     inkscape:pagecheckerboard="0"
     inkscape:deskcolor="#d1d1d1"
     inkscape:document-units="mm"
     inkscape:zoom="5.0779289"
     inkscape:cx="40.863116"
     inkscape:cy="30.42579"
     inkscape:window-width="1920"
     inkscape:window-height="1008"
     inkscape:window-x="0"
     inkscape:window-y="0"
     inkscape:window-maximized="1"
     inkscape:current-layer="layer1" />
  <defs
     id="defs1" />
  <g
     inkscape:label="Layer 1"
     inkscape:groupmode="layer"
     id="layer1"
     transform="translate(-96.326366,-134.30258)">
    <g
       id="banc"
       transform="matrix(0.03853739,-0.26176174,0.26176174,0.03853739,53.918315,179.93594)">
      <polygon
         id="polygon473"
         stroke-miterlimit="10"
         points="201.895,204.247 200.381,199.378 174.983,203.305 152.385,208.347 153.934,213.548 176.602,209.169 "
         style="fill:none;stroke:#4b4b4a;stroke-width:2;stroke-linejoin:bevel;stroke-miterlimit:10" />
      <polygon
         id="polygon475"
         points="201.895,204.247 200.381,199.378 174.983,203.305 152.385,208.347 153.934,213.548 176.602,209.169 "
         style="fill:#b3b3b3" />
      <polygon
         id="polygon479"
         stroke-miterlimit="10"
         points="193.497,153.357 192.271,148.407 166.674,150.724 143.82,154.431 145.062,159.714 167.946,156.67 "
         style="fill:none;stroke:#4b4b4a;stroke-width:2;stroke-linejoin:bevel;stroke-miterlimit:10" />
      <polygon
         id="polygon481"
         points="193.497,153.357 192.271,148.407 166.674,150.724 143.82,154.431 145.062,159.714 167.946,156.67 "
         style="fill:#b3b3b3" />
      <polygon
         id="polygon497"
         stroke-miterlimit="10"
         points="177.119,137.125 166.641,139.491 179.071,219.969 190.02,218.894 "
         style="fill:none;stroke:#4b4b4a;stroke-width:2;stroke-linejoin:bevel;stroke-miterlimit:10" />
      <polygon
         id="polygon499"
         points="177.119,137.125 166.641,139.491 179.071,219.969 190.02,218.894 "
         style="fill:#d9d9d9;fill-opacity:1" />
      <polygon
         id="polygon503"
         stroke-miterlimit="10"
         points="161.964,139.647 156.136,141.597 169.264,222.335 174.865,221.416 "
         style="fill:none;stroke:#4b4b4a;stroke-width:2;stroke-linejoin:bevel;stroke-miterlimit:10" />
      <polygon
         id="polygon505"
         points="161.964,139.647 156.136,141.597 169.264,222.335 174.865,221.416 "
         style="fill:#bdbdbd;fill-opacity:1" />
      <polygon
         id="polygon509"
         stroke-miterlimit="10"
         points="153.083,141.246 147.253,143.195 160.382,223.936 165.983,223.014 "
         style="fill:none;stroke:#4b4b4a;stroke-width:2;stroke-linejoin:bevel;stroke-miterlimit:10" />
      <polygon
         id="polygon511"
         points="153.083,141.246 147.253,143.195 160.382,223.936 165.983,223.014 "
         style="fill:#bdbdbd;fill-opacity:1" />
      <polygon
         id="polygon515"
         stroke-miterlimit="10"
         points="192.962,134.798 180.731,136.413 193.666,218.512 205.166,216.305 "
         style="fill:none;stroke:#4b4b4a;stroke-width:2;stroke-linejoin:bevel;stroke-miterlimit:10" />
      <polygon
         id="polygon517"
         points="192.962,134.798 180.731,136.413 193.666,218.512 205.166,216.305 "
         style="fill:#c7c7c7;fill-opacity:1" />
    </g>
    <path
       id="polygon1"
       style="display:inline;mix-blend-mode:multiply;fill:#d38d5f"
       d="m 205.16609,216.30567 -12.20318,-81.50781 -12.23112,1.61514 12.93381,82.0991 z m -15.14574,2.5891 -12.90119,-81.77026 -10.47808,2.36585 12.4308,80.47931 z m -15.15569,2.52148 -12.90091,-81.76834 -5.827,1.94959 13.12825,80.73791 z m -8.88152,1.59777 -12.90091,-81.76834 -5.82894,1.94988 13.12853,80.73984 z"
       inkscape:label="color"
       transform="matrix(0.03853739,-0.26176174,0.26176174,0.03853739,53.918315,179.93594)" />
  </g>
</svg>
