<?xml version="1.0" encoding="UTF-8" standalone="no"?>
<!-- Created with Inkscape (http://www.inkscape.org/) -->

<svg
   width="39.899998mm"
   height="32.099995mm"
   viewBox="0 0 39.899998 32.099994"
   version="1.1"
   id="svg1"
   inkscape:version="1.3.2 (1:1.3.2+202311252150+091e20ef0f)"
   sodipodi:docname="chair-office.svg"
   xmlns:inkscape="http://www.inkscape.org/namespaces/inkscape"
   xmlns:sodipodi="http://sodipodi.sourceforge.net/DTD/sodipodi-0.dtd"
   xmlns:xlink="http://www.w3.org/1999/xlink"
   xmlns="http://www.w3.org/2000/svg"
   xmlns:svg="http://www.w3.org/2000/svg">
  <sodipodi:namedview
     id="namedview1"
     pagecolor="#ffffff"
     bordercolor="#000000"
     borderopacity="0.25"
     inkscape:showpageshadow="2"
     inkscape:pageopacity="0.0"
     inkscape:pagecheckerboard="0"
     inkscape:deskcolor="#d1d1d1"
     inkscape:document-units="mm"
     showguides="true"
     inkscape:zoom="1.0948152"
     inkscape:cx="106.41065"
     inkscape:cy="36.079148"
     inkscape:window-width="1920"
     inkscape:window-height="1008"
     inkscape:window-x="0"
     inkscape:window-y="0"
     inkscape:window-maximized="1"
     inkscape:current-layer="layer1" />
  <defs
     id="defs1">
    <linearGradient
       id="linearGradient5"
       inkscape:collect="always">
      <stop
         style="stop-color:#121212;stop-opacity:1;"
         offset="0"
         id="stop6" />
      <stop
         style="stop-color:#292929;stop-opacity:1;"
         offset="0.64668989"
         id="stop7" />
    </linearGradient>
    <linearGradient
       id="linearGradient1"
       inkscape:collect="always">
      <stop
         style="stop-color:#141414;stop-opacity:1;"
         offset="0.170092"
         id="stop1" />
      <stop
         style="stop-color:#141414;stop-opacity:1;"
         offset="0.42923421"
         id="stop4" />
      <stop
         style="stop-color:#1c1c1c;stop-opacity:1;"
         offset="0.7633177"
         id="stop5" />
      <stop
         style="stop-color:#1a1a1a;stop-opacity:1;"
         offset="1"
         id="stop3" />
    </linearGradient>
    <radialGradient
       inkscape:collect="always"
       xlink:href="#linearGradient1"
       id="radialGradient3"
       cx="71.972214"
       cy="145.90092"
       fx="71.972214"
       fy="145.90092"
       r="25.249998"
       gradientTransform="matrix(1.3169022,-0.00972224,0.0080054,1.0843573,-23.976142,-11.608075)"
       gradientUnits="userSpaceOnUse" />
    <linearGradient
       inkscape:collect="always"
       xlink:href="#linearGradient5"
       id="linearGradient7"
       x1="168.3051"
       y1="-71.972267"
       x2="176.49673"
       y2="-71.972267"
       gradientUnits="userSpaceOnUse" />
  </defs>
  <g
     inkscape:label="Layer 1"
     inkscape:groupmode="layer"
     id="layer1"
     transform="translate(-135.7409,-143.81875)">
    <g
       id="g5239"
       transform="matrix(0.6,0,0,0.6,112.50757,70.020705)"
       inkscape:label="Silla X"
       style="display:inline">
      <rect
         style="fill:url(#radialGradient3);stroke:#333333;stroke-width:0.499999;stroke-dasharray:none;stroke-opacity:1;paint-order:markers fill stroke"
         id="rect5175"
         width="50"
         height="45.308357"
         x="46.972214"
         y="123.24674"
         ry="14.499992" />
      <rect
         style="fill:#191919;fill-opacity:1;stroke:#333333;stroke-width:0.499999;stroke-dasharray:none;stroke-opacity:1;paint-order:markers fill stroke"
         id="rect5229"
         width="8"
         height="24"
         x="96.972214"
         y="137.74673"
         ry="3.1077132" />
      <rect
         style="fill:url(#linearGradient7);stroke:#333333;stroke-width:0.499999;stroke-dasharray:none;stroke-opacity:1;paint-order:markers fill stroke"
         id="rect5233"
         width="7.6916351"
         height="49.999893"
         x="168.5551"
         y="-96.972214"
         ry="2.9312537"
         transform="rotate(90)" />
      <rect
         style="fill:#191919;fill-opacity:1;stroke:#333333;stroke-width:0.499999;stroke-dasharray:none;stroke-opacity:1;paint-order:markers fill stroke"
         id="rect1"
         width="8"
         height="24"
         x="38.972214"
         y="137.74673"
         ry="3.1077132" />
    </g>
  </g>
</svg>
