<?xml version="1.0" encoding="UTF-8" standalone="no"?>
<!-- Created with Inkscape (http://www.inkscape.org/) -->

<svg
   width="39.238831mm"
   height="8.5812702mm"
   viewBox="0 0 39.23883 8.5812703"
   version="1.1"
   id="svg1"
   sodipodi:docname="panel-black.svg"
   inkscape:version="1.3.2 (1:1.3.2+202311252150+091e20ef0f)"
   xmlns:inkscape="http://www.inkscape.org/namespaces/inkscape"
   xmlns:sodipodi="http://sodipodi.sourceforge.net/DTD/sodipodi-0.dtd"
   xmlns="http://www.w3.org/2000/svg"
   xmlns:svg="http://www.w3.org/2000/svg">
  <sodipodi:namedview
     id="namedview1"
     pagecolor="#ffffff"
     bordercolor="#000000"
     borderopacity="0.25"
     inkscape:showpageshadow="2"
     inkscape:pageopacity="0.0"
     inkscape:pagecheckerboard="0"
     inkscape:deskcolor="#d1d1d1"
     inkscape:document-units="mm"
     inkscape:zoom="5.1448293"
     inkscape:cx="81.149437"
     inkscape:cy="16.229887"
     inkscape:window-width="1920"
     inkscape:window-height="1008"
     inkscape:window-x="0"
     inkscape:window-y="0"
     inkscape:window-maximized="1"
     inkscape:current-layer="layer1" />
  <defs
     id="defs1" />
  <g
     inkscape:label="Capa 1"
     inkscape:groupmode="layer"
     id="layer1"
     transform="translate(-94.174594,-51.081643)">
    <g
       id="g1"
       transform="rotate(-90,113.79401,55.372273)">
      <path
         id="rect17-4-6"
         style="fill:#1a1a1a;fill-opacity:1;stroke:#333333;stroke-width:0.584;stroke-linejoin:bevel;stroke-dasharray:none;paint-order:normal"
         d="m 117.79264,41.377847 v 27.98617 l -7.99727,5.38547 v -38.75439 z"
         sodipodi:nodetypes="ccccc" />
      <path
         id="path1"
         style="fill:#1a1a1a;fill-opacity:1;stroke:#333333;stroke-width:0.584;stroke-linejoin:bevel;stroke-dasharray:none;paint-order:normal"
         d="m 117.79264,41.377847 v 27.98617 l -7.99727,5.38547 v -38.75439 z"
         sodipodi:nodetypes="ccccc" />
    </g>
  </g>
</svg>
