<?xml version="1.0" encoding="UTF-8" standalone="no"?>
<!-- Created with Inkscape (http://www.inkscape.org/) -->

<svg
   width="34.61964mm"
   height="7.5260649mm"
   viewBox="0 0 34.619641 7.5260648"
   version="1.1"
   id="svg1"
   sodipodi:docname="reflector-white.svg"
   inkscape:version="1.3.2 (1:1.3.2+202311252150+091e20ef0f)"
   xmlns:inkscape="http://www.inkscape.org/namespaces/inkscape"
   xmlns:sodipodi="http://sodipodi.sourceforge.net/DTD/sodipodi-0.dtd"
   xmlns:xlink="http://www.w3.org/1999/xlink"
   xmlns="http://www.w3.org/2000/svg"
   xmlns:svg="http://www.w3.org/2000/svg">
  <sodipodi:namedview
     id="namedview1"
     pagecolor="#ffffff"
     bordercolor="#000000"
     borderopacity="0.25"
     inkscape:showpageshadow="2"
     inkscape:pageopacity="0.0"
     inkscape:pagecheckerboard="0"
     inkscape:deskcolor="#d1d1d1"
     inkscape:document-units="mm"
     inkscape:zoom="2.3401527"
     inkscape:cx="31.408207"
     inkscape:cy="100.20714"
     inkscape:window-width="1920"
     inkscape:window-height="1008"
     inkscape:window-x="0"
     inkscape:window-y="0"
     inkscape:window-maximized="1"
     inkscape:current-layer="layer1" />
  <defs
     id="defs1">
    <linearGradient
       inkscape:collect="always"
       xlink:href="#linearGradient13"
       id="linearGradient21"
       x1="-10727.458"
       y1="1225"
       x2="-10727.458"
       y2="1409"
       gradientUnits="userSpaceOnUse"
       gradientTransform="translate(0.69938844)" />
    <linearGradient
       id="linearGradient13"
       inkscape:collect="always"
       inkscape:label="cyl">
      <stop
         style="stop-color:#373737;stop-opacity:1;"
         offset="0"
         id="stop13" />
      <stop
         style="stop-color:#929292;stop-opacity:1;"
         offset="0.13367468"
         id="stop24" />
      <stop
         style="stop-color:#bfbfbf;stop-opacity:1;"
         offset="0.26734936"
         id="stop22" />
      <stop
         style="stop-color:#929292;stop-opacity:1;"
         offset="0.63367468"
         id="stop23" />
      <stop
         style="stop-color:#2d2d2d;stop-opacity:1;"
         offset="1"
         id="stop21" />
    </linearGradient>
    <linearGradient
       inkscape:collect="always"
       xlink:href="#linearGradient29"
       id="linearGradient30"
       x1="-10722.379"
       y1="1223.4882"
       x2="-10722.379"
       y2="1409"
       gradientUnits="userSpaceOnUse" />
    <linearGradient
       id="linearGradient29"
       inkscape:collect="always">
      <stop
         style="stop-color:#f3f3f3;stop-opacity:1;"
         offset="0"
         id="stop29" />
      <stop
         style="stop-color:#f9f9f9;stop-opacity:1;"
         offset="0.5"
         id="stop31" />
      <stop
         style="stop-color:#f0f0f0;stop-opacity:1;"
         offset="1"
         id="stop30" />
    </linearGradient>
    <linearGradient
       inkscape:collect="always"
       xlink:href="#linearGradient13"
       id="linearGradient28"
       x1="-10722.379"
       y1="1223.4882"
       x2="-10722.379"
       y2="1409"
       gradientUnits="userSpaceOnUse" />
  </defs>
  <g
     inkscape:label="Layer 1"
     inkscape:groupmode="layer"
     id="layer1"
     transform="translate(-120.07719,-119.63355)">
    <g
       id="g31"
       transform="matrix(0,-0.18475046,0.18510821,0,-106.4005,-1857.9724)">
      <path
         id="ellipse1"
         style="fill:url(#linearGradient21);fill-opacity:1;stroke:url(#linearGradient21);stroke-width:3.02362;stroke-linejoin:round;paint-order:stroke fill markers"
         d="m -10710.091,1317 c 0,43.0381 -1.727,92 -11.588,92 -2.295,0 -3.671,2e-4 -5.079,0 -9.205,10e-4 -16.667,-41.1891 -16.667,-92 0,-50.8109 7.462,-92.001 16.667,-92 1.357,-2e-4 2.044,0 5.079,0 4.917,0 11.588,48.6797 11.588,92 z"
         sodipodi:nodetypes="sscscss" />
      <ellipse
         style="fill:url(#linearGradient30);stroke:url(#linearGradient28);stroke-width:3.02362;stroke-linejoin:round;stroke-dasharray:none;paint-order:stroke fill markers"
         id="path1"
         cx="-10722.379"
         cy="1317"
         rx="16.666666"
         ry="92" />
    </g>
  </g>
</svg>
