<?xml version="1.0" encoding="UTF-8" standalone="no"?>
<!-- Generator: Adobe Illustrator 16.0.0, SVG Export Plug-In . SVG Version: 6.00 Build 0)  -->

<svg
   version="1.1"
   id="Calque_1"
   x="0px"
   y="0px"
   width="117.71008"
   height="100.91496"
   viewBox="0 0 117.71008 100.91497"
   enable-background="new 0 0 283.46 200.333"
   xml:space="preserve"
   sodipodi:docname="roof-3.svg"
   inkscape:version="1.3.2 (1:1.3.2+202311252150+091e20ef0f)"
   xmlns:inkscape="http://www.inkscape.org/namespaces/inkscape"
   xmlns:sodipodi="http://sodipodi.sourceforge.net/DTD/sodipodi-0.dtd"
   xmlns="http://www.w3.org/2000/svg"
   xmlns:svg="http://www.w3.org/2000/svg"><defs
   id="defs148" /><sodipodi:namedview
   id="namedview148"
   pagecolor="#ffffff"
   bordercolor="#000000"
   borderopacity="0.25"
   inkscape:showpageshadow="2"
   inkscape:pageopacity="0.0"
   inkscape:pagecheckerboard="0"
   inkscape:deskcolor="#d1d1d1"
   inkscape:zoom="4.6364424"
   inkscape:cx="46.048238"
   inkscape:cy="60.28329"
   inkscape:window-width="1920"
   inkscape:window-height="1008"
   inkscape:window-x="0"
   inkscape:window-y="0"
   inkscape:window-maximized="1"
   inkscape:current-layer="Calque_1" />

<g
   id="g140"
   transform="translate(-144.69692,-10.792724)">
	<g
   id="g1">
		
			<rect
   x="152.446"
   y="3.2030001"
   transform="matrix(0.0016,1,-1,0.0016,256.909,-141.6584)"
   opacity="0.3"
   fill="#1d1d1c"
   width="93.900002"
   height="109.253"
   id="rect1" />
	</g>
	<g
   id="g129">
		
			<rect
   x="148.68401"
   y="66.703003"
   transform="matrix(0.0016,1,-1,0.0016,224.425,-84.5457)"
   fill="#e4943a"
   stroke="#754f1c"
   stroke-miterlimit="10"
   width="11.736"
   height="6.8280001"
   id="rect2" />
		
			<rect
   x="148.60899"
   y="19.753"
   transform="matrix(0.0015,1,-1,0.0015,177.4137,-131.3446)"
   fill="#e4943a"
   stroke="#754f1c"
   stroke-miterlimit="10"
   width="11.737"
   height="6.8280001"
   id="rect3" />
		
			<rect
   x="148.701"
   y="78.442001"
   transform="matrix(0.0016,1,-1,0.0016,236.1814,-72.844)"
   fill="#e4943a"
   stroke="#754f1c"
   stroke-miterlimit="10"
   width="11.738"
   height="6.8270001"
   id="rect4" />
		
			<rect
   x="148.72099"
   y="90.178001"
   transform="matrix(0.0016,1,-1,0.0016,247.9366,-61.1453)"
   fill="#e4943a"
   stroke="#754f1c"
   stroke-miterlimit="10"
   width="11.736"
   height="6.8280001"
   id="rect5" />
		
			<rect
   x="148.739"
   y="101.916"
   transform="matrix(0.0016,1,-1,0.0016,259.6935,-49.4441)"
   fill="#e4943a"
   stroke="#754f1c"
   stroke-miterlimit="10"
   width="11.738"
   height="6.8280001"
   id="rect6" />
		
			<rect
   x="148.66499"
   y="54.966"
   transform="matrix(0.0017,1,-1,0.0017,212.6566,-96.2505)"
   fill="#e4943a"
   stroke="#754f1c"
   stroke-miterlimit="10"
   width="11.738"
   height="6.829"
   id="rect7" />
		
			<rect
   x="148.646"
   y="43.229"
   transform="matrix(0.0015,1,-1,0.0015,200.9258,-107.9418)"
   fill="#e4943a"
   stroke="#754f1c"
   stroke-miterlimit="10"
   width="11.737"
   height="6.8280001"
   id="rect8" />
		
			<rect
   x="148.627"
   y="31.490999"
   transform="matrix(0.0017,1,-1,0.0017,189.1452,-119.6487)"
   fill="#e4943a"
   stroke="#754f1c"
   stroke-miterlimit="10"
   width="11.738"
   height="6.829"
   id="rect9" />
		
			<rect
   x="155.511"
   y="66.692001"
   transform="matrix(0.0015,1,-1,0.0015,231.2446,-91.3782)"
   fill="#e4943a"
   stroke="#754f1c"
   stroke-miterlimit="10"
   width="11.738"
   height="6.8280001"
   id="rect10" />
		
			<rect
   x="155.437"
   y="19.743"
   transform="matrix(0.0016,1,-1,0.0016,184.2084,-138.1853)"
   fill="#e4943a"
   stroke="#754f1c"
   stroke-miterlimit="10"
   width="11.738"
   height="6.8280001"
   id="rect11" />
		
			<rect
   x="155.53101"
   y="78.429001"
   transform="matrix(0.0017,1,-1,0.0017,242.9745,-79.6916)"
   fill="#e4943a"
   stroke="#754f1c"
   stroke-miterlimit="10"
   width="11.736"
   height="6.8299999"
   id="rect12" />
		
			<rect
   x="155.548"
   y="90.167999"
   transform="matrix(0.0016,1,-1,0.0016,254.7442,-67.9832)"
   fill="#e4943a"
   stroke="#754f1c"
   stroke-miterlimit="10"
   width="11.738"
   height="6.8280001"
   id="rect13" />
		
			<rect
   x="155.56799"
   y="101.904"
   transform="matrix(0.0016,1,-1,0.0016,266.4991,-56.284)"
   fill="#e4943a"
   stroke="#754f1c"
   stroke-miterlimit="10"
   width="11.736"
   height="6.8280001"
   id="rect14" />
		
			<rect
   x="155.493"
   y="54.955002"
   transform="matrix(0.0016,1,-1,0.0016,219.476,-103.0845)"
   fill="#e4943a"
   stroke="#754f1c"
   stroke-miterlimit="10"
   width="11.738"
   height="6.8280001"
   id="rect15" />
		
			<rect
   x="155.47501"
   y="43.217999"
   transform="matrix(0.0016,1,-1,0.0016,207.72,-114.7849)"
   fill="#e4943a"
   stroke="#754f1c"
   stroke-miterlimit="10"
   width="11.737"
   height="6.8280001"
   id="rect16" />
		
			<rect
   x="155.45599"
   y="31.48"
   transform="matrix(0.0016,1,-1,0.0016,195.9632,-126.4851)"
   fill="#e4943a"
   stroke="#754f1c"
   stroke-miterlimit="10"
   width="11.736"
   height="6.8270001"
   id="rect17" />
		
			<rect
   x="162.34"
   y="66.681999"
   transform="matrix(0.0017,1,-1,0.0017,238.0247,-98.2297)"
   fill="#e4943a"
   stroke="#754f1c"
   stroke-miterlimit="10"
   width="11.738"
   height="6.8280001"
   id="rect18" />
		
			<rect
   x="162.265"
   y="19.732"
   transform="matrix(0.0015,1,-1,0.0015,191.028,-145.0223)"
   fill="#e4943a"
   stroke="#754f1c"
   stroke-miterlimit="10"
   width="11.737"
   height="6.8280001"
   id="rect19" />
		
			<rect
   x="162.358"
   y="78.419998"
   transform="matrix(0.0015,1,-1,0.0015,249.8095,-86.5159)"
   fill="#e4943a"
   stroke="#754f1c"
   stroke-miterlimit="10"
   width="11.738"
   height="6.8280001"
   id="rect20" />
		
			<rect
   x="162.377"
   y="90.155998"
   transform="matrix(0.0016,1,-1,0.0016,261.5498,-74.823)"
   fill="#e4943a"
   stroke="#754f1c"
   stroke-miterlimit="10"
   width="11.736"
   height="6.8280001"
   id="rect21" />
		
			<rect
   x="162.396"
   y="101.894"
   transform="matrix(0.0016,1,-1,0.0016,273.3056,-63.1228)"
   fill="#e4943a"
   stroke="#754f1c"
   stroke-miterlimit="10"
   width="11.736"
   height="6.8280001"
   id="rect22" />
		
			<rect
   x="162.32201"
   y="54.944"
   transform="matrix(0.0016,1,-1,0.0016,226.2821,-109.9238)"
   fill="#e4943a"
   stroke="#754f1c"
   stroke-miterlimit="10"
   width="11.736"
   height="6.8280001"
   id="rect23" />
		
			<rect
   x="162.30299"
   y="43.207001"
   transform="matrix(0.0016,1,-1,0.0016,214.5266,-121.6238)"
   fill="#e4943a"
   stroke="#754f1c"
   stroke-miterlimit="10"
   width="11.737"
   height="6.8280001"
   id="rect24" />
		
			<rect
   x="162.283"
   y="31.469999"
   transform="matrix(0.0017,1,-1,0.0017,202.7568,-133.3259)"
   fill="#e4943a"
   stroke="#754f1c"
   stroke-miterlimit="10"
   width="11.738"
   height="6.8280001"
   id="rect25" />
		
			<rect
   x="169.168"
   y="66.670998"
   transform="matrix(0.0017,1,-1,0.0017,244.8307,-105.0685)"
   fill="#e4943a"
   stroke="#754f1c"
   stroke-miterlimit="10"
   width="11.738"
   height="6.8280001"
   id="rect26" />
		
			<rect
   x="169.092"
   y="19.722"
   transform="matrix(0.0015,1,-1,0.0015,197.8351,-151.8601)"
   fill="#e4943a"
   stroke="#754f1c"
   stroke-miterlimit="10"
   width="11.738"
   height="6.8270001"
   id="rect27" />
		
			<rect
   x="169.187"
   y="78.408997"
   transform="matrix(0.0015,1,-1,0.0015,256.6152,-93.3553)"
   fill="#e4943a"
   stroke="#754f1c"
   stroke-miterlimit="10"
   width="11.736"
   height="6.8270001"
   id="rect28" />
		
			<rect
   x="169.205"
   y="90.146004"
   transform="matrix(0.0016,1,-1,0.0016,268.3574,-81.6609)"
   fill="#e4943a"
   stroke="#754f1c"
   stroke-miterlimit="10"
   width="11.738"
   height="6.8280001"
   id="rect29" />
		
			<rect
   x="169.22501"
   y="101.882"
   transform="matrix(0.0016,1,-1,0.0016,280.1127,-69.9621)"
   fill="#e4943a"
   stroke="#754f1c"
   stroke-miterlimit="10"
   width="11.736"
   height="6.829"
   id="rect30" />
		
			<rect
   x="169.14999"
   y="54.932999"
   transform="matrix(0.0016,1,-1,0.0016,233.0892,-116.7632)"
   fill="#e4943a"
   stroke="#754f1c"
   stroke-miterlimit="10"
   width="11.737"
   height="6.829"
   id="rect31" />
		
			<rect
   x="169.13"
   y="43.196999"
   transform="matrix(0.0016,1,-1,0.0016,221.3337,-128.4621)"
   fill="#e4943a"
   stroke="#754f1c"
   stroke-miterlimit="10"
   width="11.738"
   height="6.8280001"
   id="rect32" />
		
			<rect
   x="169.11301"
   y="31.458"
   transform="matrix(0.0017,1,-1,0.0017,209.5623,-140.1662)"
   fill="#e4943a"
   stroke="#754f1c"
   stroke-miterlimit="10"
   width="11.736"
   height="6.829"
   id="rect33" />
		
			<rect
   x="175.996"
   y="66.660004"
   transform="matrix(0.0016,1,-1,0.0016,251.6514,-111.9011)"
   fill="#e4943a"
   stroke="#754f1c"
   stroke-miterlimit="10"
   width="11.738"
   height="6.8280001"
   id="rect34" />
		
			<rect
   x="175.922"
   y="19.709999"
   transform="matrix(0.0017,1,-1,0.0017,204.6125,-158.7043)"
   fill="#e4943a"
   stroke="#754f1c"
   stroke-miterlimit="10"
   width="11.737"
   height="6.829"
   id="rect35" />
		
			<rect
   x="176.015"
   y="78.398003"
   transform="matrix(0.0016,1,-1,0.0016,263.4087,-100.2004)"
   fill="#e4943a"
   stroke="#754f1c"
   stroke-miterlimit="10"
   width="11.738"
   height="6.829"
   id="rect36" />
		
			<rect
   x="176.035"
   y="90.134003"
   transform="matrix(0.0017,1,-1,0.0017,275.1488,-88.5094)"
   fill="#e4943a"
   stroke="#754f1c"
   stroke-miterlimit="10"
   width="11.736"
   height="6.829"
   id="rect37" />
		
			<rect
   x="176.052"
   y="101.872"
   transform="matrix(0.0015,1,-1,0.0015,286.9345,-76.7922)"
   fill="#e4943a"
   stroke="#754f1c"
   stroke-miterlimit="10"
   width="11.738"
   height="6.8280001"
   id="rect38" />
		
			<rect
   x="175.978"
   y="54.923"
   transform="matrix(0.0015,1,-1,0.0015,239.91,-123.5972)"
   fill="#e4943a"
   stroke="#754f1c"
   stroke-miterlimit="10"
   width="11.737"
   height="6.8270001"
   id="rect39" />
		
			<rect
   x="175.96001"
   y="43.185001"
   transform="matrix(0.0017,1,-1,0.0017,228.1251,-135.3068)"
   fill="#e4943a"
   stroke="#754f1c"
   stroke-miterlimit="10"
   width="11.736"
   height="6.829"
   id="rect40" />
		
			<rect
   x="175.94"
   y="31.448999"
   transform="matrix(0.0016,1,-1,0.0016,216.3845,-147.0012)"
   fill="#e4943a"
   stroke="#754f1c"
   stroke-miterlimit="10"
   width="11.738"
   height="6.8280001"
   id="rect41" />
		
			<rect
   x="182.82401"
   y="66.650002"
   transform="matrix(0.0017,1,-1,0.0017,258.4438,-118.7452)"
   fill="#e4943a"
   stroke="#754f1c"
   stroke-miterlimit="10"
   width="11.738"
   height="6.8280001"
   id="rect42" />
		
			<rect
   x="182.75"
   y="19.700001"
   transform="matrix(0.0016,1,-1,0.0016,211.4347,-165.5407)"
   fill="#e4943a"
   stroke="#754f1c"
   stroke-miterlimit="10"
   width="11.738"
   height="6.8280001"
   id="rect43" />
		
			<rect
   x="182.84399"
   y="78.387001"
   transform="matrix(0.0016,1,-1,0.0016,270.2143,-107.0402)"
   fill="#e4943a"
   stroke="#754f1c"
   stroke-miterlimit="10"
   width="11.736"
   height="6.8270001"
   id="rect44" />
		
			<rect
   x="182.86301"
   y="90.123001"
   transform="matrix(0.0016,1,-1,0.0016,281.9696,-95.3415)"
   fill="#e4943a"
   stroke="#754f1c"
   stroke-miterlimit="10"
   width="11.736"
   height="6.8280001"
   id="rect45" />
		
			<rect
   x="182.879"
   y="101.862"
   transform="matrix(0.0015,1,-1,0.0015,293.7411,-83.6306)"
   fill="#e4943a"
   stroke="#754f1c"
   stroke-miterlimit="10"
   width="11.738"
   height="6.8270001"
   id="rect46" />
		
			<rect
   x="182.806"
   y="54.910999"
   transform="matrix(0.0016,1,-1,0.0016,246.7024,-130.4408)"
   fill="#e4943a"
   stroke="#754f1c"
   stroke-miterlimit="10"
   width="11.738"
   height="6.829"
   id="rect47" />
		
			<rect
   x="182.78799"
   y="43.174"
   transform="matrix(0.0015,1,-1,0.0015,234.9621,-142.1374)"
   fill="#e4943a"
   stroke="#754f1c"
   stroke-miterlimit="10"
   width="11.737"
   height="6.8280001"
   id="rect48" />
		
			<rect
   x="182.77"
   y="31.437"
   transform="matrix(0.0017,1,-1,0.0017,223.1748,-153.8444)"
   fill="#e4943a"
   stroke="#754f1c"
   stroke-miterlimit="10"
   width="11.736"
   height="6.8280001"
   id="rect49" />
		
			<rect
   x="189.653"
   y="66.638"
   transform="matrix(0.0016,1,-1,0.0016,265.265,-125.5793)"
   fill="#e4943a"
   stroke="#754f1c"
   stroke-miterlimit="10"
   width="11.736"
   height="6.829"
   id="rect50" />
		
			<rect
   x="189.57899"
   y="19.688"
   transform="matrix(0.0016,1,-1,0.0016,218.2413,-172.3805)"
   fill="#e4943a"
   stroke="#754f1c"
   stroke-miterlimit="10"
   width="11.737"
   height="6.829"
   id="rect51" />
		
			<rect
   x="189.672"
   y="78.375"
   transform="matrix(0.0017,1,-1,0.0017,277.0036,-113.8868)"
   fill="#e4943a"
   stroke="#754f1c"
   stroke-miterlimit="10"
   width="11.736"
   height="6.8280001"
   id="rect52" />
		
			<rect
   x="189.689"
   y="90.112999"
   transform="matrix(0.0015,1,-1,0.0015,288.793,-102.1711)"
   fill="#e4943a"
   stroke="#754f1c"
   stroke-miterlimit="10"
   width="11.738"
   height="6.8280001"
   id="rect53" />
		
			<rect
   x="189.70799"
   y="101.85"
   transform="matrix(0.0017,1,-1,0.0017,300.5167,-90.4879)"
   fill="#e4943a"
   stroke="#754f1c"
   stroke-miterlimit="10"
   width="11.738"
   height="6.829"
   id="rect54" />
		
			<rect
   x="189.633"
   y="54.902"
   transform="matrix(0.0015,1,-1,0.0015,253.5248,-137.2744)"
   fill="#e4943a"
   stroke="#754f1c"
   stroke-miterlimit="10"
   width="11.739"
   height="6.8270001"
   id="rect55" />
		
			<rect
   x="189.616"
   y="43.164001"
   transform="matrix(0.0016,1,-1,0.0016,241.7534,-148.9806)"
   fill="#e4943a"
   stroke="#754f1c"
   stroke-miterlimit="10"
   width="11.737"
   height="6.8280001"
   id="rect56" />
		
			<rect
   x="189.597"
   y="31.426001"
   transform="matrix(0.0017,1,-1,0.0017,229.9809,-160.6832)"
   fill="#e4943a"
   stroke="#754f1c"
   stroke-miterlimit="10"
   width="11.737"
   height="6.8280001"
   id="rect57" />
		
			<rect
   x="196.481"
   y="66.626999"
   transform="matrix(0.0015,1,-1,0.0015,272.0875,-132.4133)"
   fill="#e4943a"
   stroke="#754f1c"
   stroke-miterlimit="10"
   width="11.736"
   height="6.8280001"
   id="rect58" />
		
			<rect
   x="196.407"
   y="19.677999"
   transform="matrix(0.0015,1,-1,0.0015,225.0642,-179.2179)"
   fill="#e4943a"
   stroke="#754f1c"
   stroke-miterlimit="10"
   width="11.737"
   height="6.8280001"
   id="rect59" />
		
			<rect
   x="196.49899"
   y="78.364998"
   transform="matrix(0.0017,1,-1,0.0017,283.8106,-120.7247)"
   fill="#e4943a"
   stroke="#754f1c"
   stroke-miterlimit="10"
   width="11.738"
   height="6.8280001"
   id="rect60" />
		
			<rect
   x="196.519"
   y="90.101997"
   transform="matrix(0.0016,1,-1,0.0016,295.5828,-109.0192)"
   fill="#e4943a"
   stroke="#754f1c"
   stroke-miterlimit="10"
   width="11.736"
   height="6.8280001"
   id="rect61" />
		
			<rect
   x="196.537"
   y="101.84"
   transform="matrix(0.0016,1,-1,0.0016,307.3396,-97.318)"
   fill="#e4943a"
   stroke="#754f1c"
   stroke-miterlimit="10"
   width="11.738"
   height="6.8280001"
   id="rect62" />
		
			<rect
   x="196.46201"
   y="54.889999"
   transform="matrix(0.0017,1,-1,0.0017,260.2988,-144.1234)"
   fill="#e4943a"
   stroke="#754f1c"
   stroke-miterlimit="10"
   width="11.739"
   height="6.8280001"
   id="rect63" />
		
			<rect
   x="196.444"
   y="43.152"
   transform="matrix(0.0015,1,-1,0.0015,248.5759,-155.8156)"
   fill="#e4943a"
   stroke="#754f1c"
   stroke-miterlimit="10"
   width="11.736"
   height="6.8280001"
   id="rect64" />
		
			<rect
   x="196.425"
   y="31.416"
   transform="matrix(0.0017,1,-1,0.0017,236.7869,-167.522)"
   fill="#e4943a"
   stroke="#754f1c"
   stroke-miterlimit="10"
   width="11.737"
   height="6.8280001"
   id="rect65" />
		
			<rect
   x="203.30901"
   y="66.616997"
   transform="matrix(0.0015,1,-1,0.0015,278.8957,-139.2511)"
   fill="#e4943a"
   stroke="#754f1c"
   stroke-miterlimit="10"
   width="11.738"
   height="6.8280001"
   id="rect66" />
		
			<rect
   x="203.23399"
   y="19.667999"
   transform="matrix(0.0015,1,-1,0.0015,231.8714,-186.0558)"
   fill="#e4943a"
   stroke="#754f1c"
   stroke-miterlimit="10"
   width="11.738"
   height="6.8270001"
   id="rect67" />
		
			<rect
   x="203.328"
   y="78.353996"
   transform="matrix(0.0017,1,-1,0.0017,290.6166,-127.5635)"
   fill="#e4943a"
   stroke="#754f1c"
   stroke-miterlimit="10"
   width="11.736"
   height="6.8280001"
   id="rect68" />
		
			<rect
   x="203.34599"
   y="90.092003"
   transform="matrix(0.0016,1,-1,0.0016,302.3904,-115.857)"
   fill="#e4943a"
   stroke="#754f1c"
   stroke-miterlimit="10"
   width="11.738"
   height="6.8280001"
   id="rect69" />
		
			<rect
   x="203.366"
   y="101.828"
   transform="matrix(0.0016,1,-1,0.0016,314.1452,-104.1578)"
   fill="#e4943a"
   stroke="#754f1c"
   stroke-miterlimit="10"
   width="11.736"
   height="6.8280001"
   id="rect70" />
		
			<rect
   x="203.291"
   y="54.879002"
   transform="matrix(0.0017,1,-1,0.0017,267.1047,-150.9632)"
   fill="#e4943a"
   stroke="#754f1c"
   stroke-miterlimit="10"
   width="11.737"
   height="6.829"
   id="rect71" />
		
			<rect
   x="203.272"
   y="43.141998"
   transform="matrix(0.0015,1,-1,0.0015,255.3835,-162.6539)"
   fill="#e4943a"
   stroke="#754f1c"
   stroke-miterlimit="10"
   width="11.737"
   height="6.8280001"
   id="rect72" />
		
			<rect
   x="203.25301"
   y="31.403999"
   transform="matrix(0.0017,1,-1,0.0017,243.5924,-174.3614)"
   fill="#e4943a"
   stroke="#754f1c"
   stroke-miterlimit="10"
   width="11.737"
   height="6.8280001"
   id="rect73" />
		
			<rect
   x="210.13699"
   y="66.606003"
   transform="matrix(0.0015,1,-1,0.0015,285.7028,-146.09)"
   fill="#e4943a"
   stroke="#754f1c"
   stroke-miterlimit="10"
   width="11.738"
   height="6.8280001"
   id="rect74" />
		
			<rect
   x="210.063"
   y="19.655001"
   transform="matrix(0.0016,1,-1,0.0016,238.6601,-192.898)"
   fill="#e4943a"
   stroke="#754f1c"
   stroke-miterlimit="10"
   width="11.736"
   height="6.829"
   id="rect75" />
		
			<rect
   x="210.157"
   y="78.343002"
   transform="matrix(0.0017,1,-1,0.0017,297.4236,-134.4033)"
   fill="#e4943a"
   stroke="#754f1c"
   stroke-miterlimit="10"
   width="11.736"
   height="6.8299999"
   id="rect76" />
		
			<rect
   x="210.175"
   y="90.080002"
   transform="matrix(0.0016,1,-1,0.0016,309.1959,-122.6969)"
   fill="#e4943a"
   stroke="#754f1c"
   stroke-miterlimit="10"
   width="11.736"
   height="6.8280001"
   id="rect77" />
		
			<rect
   x="210.19299"
   y="101.818"
   transform="matrix(0.0016,1,-1,0.0016,320.9533,-110.9961)"
   fill="#e4943a"
   stroke="#754f1c"
   stroke-miterlimit="10"
   width="11.738"
   height="6.829"
   id="rect78" />
		
			<rect
   x="210.118"
   y="54.868999"
   transform="matrix(0.0016,1,-1,0.0016,273.9288,-157.7962)"
   fill="#e4943a"
   stroke="#754f1c"
   stroke-miterlimit="10"
   width="11.738"
   height="6.8270001"
   id="rect79" />
		
			<rect
   x="210.101"
   y="43.131001"
   transform="matrix(0.0016,1,-1,0.0016,262.1727,-169.4976)"
   fill="#e4943a"
   stroke="#754f1c"
   stroke-miterlimit="10"
   width="11.737"
   height="6.8280001"
   id="rect80" />
		
			<rect
   x="210.082"
   y="31.393999"
   transform="matrix(0.0017,1,-1,0.0017,250.3994,-181.2002)"
   fill="#e4943a"
   stroke="#754f1c"
   stroke-miterlimit="10"
   width="11.738"
   height="6.829"
   id="rect81" />
		
			<rect
   x="216.966"
   y="66.596001"
   transform="matrix(0.0017,1,-1,0.0017,292.4738,-152.9414)"
   fill="#e4943a"
   stroke="#754f1c"
   stroke-miterlimit="10"
   width="11.738"
   height="6.8280001"
   id="rect82" />
		
			<rect
   x="216.89101"
   y="19.646"
   transform="matrix(0.0016,1,-1,0.0016,245.4677,-199.7369)"
   fill="#e4943a"
   stroke="#754f1c"
   stroke-miterlimit="10"
   width="11.738"
   height="6.8280001"
   id="rect83" />
		
			<rect
   x="216.985"
   y="78.332001"
   transform="matrix(0.0015,1,-1,0.0015,304.2657,-141.2296)"
   fill="#e4943a"
   stroke="#754f1c"
   stroke-miterlimit="10"
   width="11.736"
   height="6.8280001"
   id="rect84" />
		
			<rect
   x="217.00301"
   y="90.07"
   transform="matrix(0.0017,1,-1,0.0017,315.986,-129.5434)"
   fill="#e4943a"
   stroke="#754f1c"
   stroke-miterlimit="10"
   width="11.738"
   height="6.829"
   id="rect85" />
		
			<rect
   x="217.022"
   y="101.807"
   transform="matrix(0.0015,1,-1,0.0015,327.7774,-117.8273)"
   fill="#e4943a"
   stroke="#754f1c"
   stroke-miterlimit="10"
   width="11.736"
   height="6.8280001"
   id="rect86" />
		
			<rect
   x="216.948"
   y="54.855999"
   transform="matrix(0.0017,1,-1,0.0017,280.7168,-164.6418)"
   fill="#e4943a"
   stroke="#754f1c"
   stroke-miterlimit="10"
   width="11.737"
   height="6.8299999"
   id="rect87" />
		
			<rect
   x="216.92799"
   y="43.119999"
   transform="matrix(0.0015,1,-1,0.0015,268.9974,-176.3321)"
   fill="#e4943a"
   stroke="#754f1c"
   stroke-miterlimit="10"
   width="11.738"
   height="6.8280001"
   id="rect88" />
		
			<rect
   x="216.911"
   y="31.382"
   transform="matrix(0.0016,1,-1,0.0016,257.223,-188.0372)"
   fill="#e4943a"
   stroke="#754f1c"
   stroke-miterlimit="10"
   width="11.736"
   height="6.8280001"
   id="rect89" />
		
			<rect
   x="223.795"
   y="66.584"
   transform="matrix(0.0017,1,-1,0.0017,299.2788,-159.7812)"
   fill="#e4943a"
   stroke="#754f1c"
   stroke-miterlimit="10"
   width="11.736"
   height="6.8280001"
   id="rect90" />
		
			<rect
   x="223.72"
   y="19.634001"
   transform="matrix(0.0016,1,-1,0.0016,252.2738,-206.5762)"
   fill="#e4943a"
   stroke="#754f1c"
   stroke-miterlimit="10"
   width="11.737"
   height="6.8280001"
   id="rect91" />
		
			<rect
   x="223.813"
   y="78.322998"
   transform="matrix(0.0016,1,-1,0.0016,311.0548,-148.0742)"
   fill="#e4943a"
   stroke="#754f1c"
   stroke-miterlimit="10"
   width="11.738"
   height="6.8270001"
   id="rect92" />
		
			<rect
   x="223.83299"
   y="90.058998"
   transform="matrix(0.0016,1,-1,0.0016,322.8101,-136.3755)"
   fill="#e4943a"
   stroke="#754f1c"
   stroke-miterlimit="10"
   width="11.736"
   height="6.8280001"
   id="rect93" />
		
			<rect
   x="223.85001"
   y="101.797"
   transform="matrix(0.0015,1,-1,0.0015,334.5856,-124.6651)"
   fill="#e4943a"
   stroke="#754f1c"
   stroke-miterlimit="10"
   width="11.738"
   height="6.8280001"
   id="rect94" />
		
			<rect
   x="223.77499"
   y="54.847"
   transform="matrix(0.0015,1,-1,0.0015,287.5616,-171.4705)"
   fill="#e4943a"
   stroke="#754f1c"
   stroke-miterlimit="10"
   width="11.739"
   height="6.8280001"
   id="rect95" />
		
			<rect
   x="223.757"
   y="43.109001"
   transform="matrix(0.0017,1,-1,0.0017,275.7668,-183.1801)"
   fill="#e4943a"
   stroke="#754f1c"
   stroke-miterlimit="10"
   width="11.737"
   height="6.8280001"
   id="rect96" />
		
			<rect
   x="223.739"
   y="31.372"
   transform="matrix(0.0016,1,-1,0.0016,264.0305,-194.876)"
   fill="#e4943a"
   stroke="#754f1c"
   stroke-miterlimit="10"
   width="11.737"
   height="6.829"
   id="rect97" />
		
			<rect
   x="230.62199"
   y="66.573997"
   transform="matrix(0.0016,1,-1,0.0016,306.1051,-166.6128)"
   fill="#e4943a"
   stroke="#754f1c"
   stroke-miterlimit="10"
   width="11.738"
   height="6.8280001"
   id="rect98" />
		
			<rect
   x="230.548"
   y="19.625"
   transform="matrix(0.0017,1,-1,0.0017,259.0622,-213.4164)"
   fill="#e4943a"
   stroke="#754f1c"
   stroke-miterlimit="10"
   width="11.738"
   height="6.8280001"
   id="rect99" />
		
			<rect
   x="230.642"
   y="78.309998"
   transform="matrix(0.0017,1,-1,0.0017,317.8412,-154.9213)"
   fill="#e4943a"
   stroke="#754f1c"
   stroke-miterlimit="10"
   width="11.736"
   height="6.829"
   id="rect100" />
		
			<rect
   x="230.659"
   y="90.047997"
   transform="matrix(0.0016,1,-1,0.0016,329.6162,-143.2139)"
   fill="#e4943a"
   stroke="#754f1c"
   stroke-miterlimit="10"
   width="11.738"
   height="6.8270001"
   id="rect101" />
		
			<rect
   x="230.679"
   y="101.785"
   transform="matrix(0.0015,1,-1,0.0015,341.3917,-131.5049)"
   fill="#e4943a"
   stroke="#754f1c"
   stroke-miterlimit="10"
   width="11.736"
   height="6.8280001"
   id="rect102" />
		
			<rect
   x="230.604"
   y="54.835999"
   transform="matrix(0.0015,1,-1,0.0015,294.3682,-178.3099)"
   fill="#e4943a"
   stroke="#754f1c"
   stroke-miterlimit="10"
   width="11.738"
   height="6.8280001"
   id="rect103" />
		
			<rect
   x="230.586"
   y="43.098"
   transform="matrix(0.0017,1,-1,0.0017,282.5733,-190.0195)"
   fill="#e4943a"
   stroke="#754f1c"
   stroke-miterlimit="10"
   width="11.737"
   height="6.829"
   id="rect104" />
		
			<rect
   x="230.567"
   y="31.361"
   transform="matrix(0.0015,1,-1,0.0015,270.8563,-201.7124)"
   fill="#e4943a"
   stroke="#754f1c"
   stroke-miterlimit="10"
   width="11.736"
   height="6.8280001"
   id="rect105" />
		
			<rect
   x="237.451"
   y="66.561996"
   transform="matrix(0.0017,1,-1,0.0017,312.8909,-173.4589)"
   fill="#e4943a"
   stroke="#754f1c"
   stroke-miterlimit="10"
   width="11.736"
   height="6.8280001"
   id="rect106" />
		
			<rect
   x="237.377"
   y="19.613001"
   transform="matrix(0.0017,1,-1,0.0017,265.8672,-220.2562)"
   fill="#e4943a"
   stroke="#754f1c"
   stroke-miterlimit="10"
   width="11.736"
   height="6.8280001"
   id="rect107" />
		
			<rect
   x="237.47"
   y="78.300003"
   transform="matrix(0.0015,1,-1,0.0015,324.6872,-161.7461)"
   fill="#e4943a"
   stroke="#754f1c"
   stroke-miterlimit="10"
   width="11.736"
   height="6.8280001"
   id="rect108" />
		
			<rect
   x="237.48801"
   y="90.037003"
   transform="matrix(0.0017,1,-1,0.0017,336.4031,-150.0609)"
   fill="#e4943a"
   stroke="#754f1c"
   stroke-miterlimit="10"
   width="11.738"
   height="6.829"
   id="rect109" />
		
			<rect
   x="237.508"
   y="101.774"
   transform="matrix(0.0017,1,-1,0.0017,348.1593,-138.3622)"
   fill="#e4943a"
   stroke="#754f1c"
   stroke-miterlimit="10"
   width="11.736"
   height="6.8280001"
   id="rect110" />
		
			<rect
   x="237.431"
   y="54.825001"
   transform="matrix(0.0015,1,-1,0.0015,301.1759,-185.1482)"
   fill="#e4943a"
   stroke="#754f1c"
   stroke-miterlimit="10"
   width="11.739"
   height="6.8280001"
   id="rect111" />
		
			<rect
   x="237.41499"
   y="43.087002"
   transform="matrix(0.0016,1,-1,0.0016,289.4,-196.8549)"
   fill="#e4943a"
   stroke="#754f1c"
   stroke-miterlimit="10"
   width="11.737"
   height="6.829"
   id="rect112" />
		
			<rect
   x="237.396"
   y="31.351"
   transform="matrix(0.0016,1,-1,0.0016,277.6442,-208.5542)"
   fill="#e4943a"
   stroke="#754f1c"
   stroke-miterlimit="10"
   width="11.737"
   height="6.8280001"
   id="rect113" />
		
			<rect
   x="244.27901"
   y="66.551003"
   transform="matrix(0.0017,1,-1,0.0017,319.6974,-180.2982)"
   fill="#e4943a"
   stroke="#754f1c"
   stroke-miterlimit="10"
   width="11.738"
   height="6.829"
   id="rect114" />
		
			<rect
   x="244.20399"
   y="19.603001"
   transform="matrix(0.0017,1,-1,0.0017,272.6737,-227.0946)"
   fill="#e4943a"
   stroke="#754f1c"
   stroke-miterlimit="10"
   width="11.738"
   height="6.8280001"
   id="rect115" />
		
			<rect
   x="244.298"
   y="78.289001"
   transform="matrix(0.0016,1,-1,0.0016,331.474,-168.5922)"
   fill="#e4943a"
   stroke="#754f1c"
   stroke-miterlimit="10"
   width="11.736"
   height="6.8280001"
   id="rect116" />
		
			<rect
   x="244.31599"
   y="90.026001"
   transform="matrix(0.0016,1,-1,0.0016,343.2299,-156.892)"
   fill="#e4943a"
   stroke="#754f1c"
   stroke-miterlimit="10"
   width="11.738"
   height="6.8280001"
   id="rect117" />
		
			<rect
   x="244.336"
   y="101.764"
   transform="matrix(0.0017,1,-1,0.0017,354.9653,-145.2011)"
   fill="#e4943a"
   stroke="#754f1c"
   stroke-miterlimit="10"
   width="11.736"
   height="6.8280001"
   id="rect118" />
		
			<rect
   x="244.25999"
   y="54.813999"
   transform="matrix(0.0015,1,-1,0.0015,307.9825,-191.9875)"
   fill="#e4943a"
   stroke="#754f1c"
   stroke-miterlimit="10"
   width="11.738"
   height="6.8280001"
   id="rect119" />
		
			<rect
   x="244.242"
   y="43.077999"
   transform="matrix(0.0015,1,-1,0.0015,296.2265,-203.689)"
   fill="#e4943a"
   stroke="#754f1c"
   stroke-miterlimit="10"
   width="11.737"
   height="6.8260002"
   id="rect120" />
		
			<rect
   x="244.22501"
   y="31.339001"
   transform="matrix(0.0017,1,-1,0.0017,284.43,-215.3969)"
   fill="#e4943a"
   stroke="#754f1c"
   stroke-miterlimit="10"
   width="11.736"
   height="6.8280001"
   id="rect121" />
		
			<rect
   x="251.106"
   y="66.542"
   transform="matrix(0.0016,1,-1,0.0016,326.5244,-187.1307)"
   fill="#e4943a"
   stroke="#754f1c"
   stroke-miterlimit="10"
   width="11.738"
   height="6.8270001"
   id="rect122" />
		
			<rect
   x="251.033"
   y="19.591"
   transform="matrix(0.0017,1,-1,0.0017,279.4792,-233.9339)"
   fill="#e4943a"
   stroke="#754f1c"
   stroke-miterlimit="10"
   width="11.737"
   height="6.8280001"
   id="rect123" />
		
			<rect
   x="251.12601"
   y="78.278"
   transform="matrix(0.0016,1,-1,0.0016,338.2806,-175.4311)"
   fill="#e4943a"
   stroke="#754f1c"
   stroke-miterlimit="10"
   width="11.736"
   height="6.8280001"
   id="rect124" />
		
			<rect
   x="251.145"
   y="90.014999"
   transform="matrix(0.0016,1,-1,0.0016,350.037,-163.7313)"
   fill="#e4943a"
   stroke="#754f1c"
   stroke-miterlimit="10"
   width="11.738"
   height="6.829"
   id="rect125" />
		
			<rect
   x="251.16299"
   y="101.753"
   transform="matrix(0.0016,1,-1,0.0016,361.7923,-152.0306)"
   fill="#e4943a"
   stroke="#754f1c"
   stroke-miterlimit="10"
   width="11.738"
   height="6.8280001"
   id="rect126" />
		
			<rect
   x="251.089"
   y="54.801998"
   transform="matrix(0.0016,1,-1,0.0016,314.7678,-198.8327)"
   fill="#e4943a"
   stroke="#754f1c"
   stroke-miterlimit="10"
   width="11.737"
   height="6.8280001"
   id="rect127" />
		
			<rect
   x="251.07001"
   y="43.064999"
   transform="matrix(0.0017,1,-1,0.0017,302.9913,-210.5359)"
   fill="#e4943a"
   stroke="#754f1c"
   stroke-miterlimit="10"
   width="11.737"
   height="6.829"
   id="rect128" />
		
			<rect
   x="251.05099"
   y="31.329"
   transform="matrix(0.0015,1,-1,0.0015,291.2778,-222.229)"
   fill="#e4943a"
   stroke="#754f1c"
   stroke-miterlimit="10"
   width="11.737"
   height="6.8280001"
   id="rect129" />
	</g>
	<g
   id="g139">
		
			<rect
   x="149.746"
   y="60.299999"
   transform="matrix(1,-0.0016,0.0016,1,-0.0986,0.2411)"
   fill="#e4943a"
   stroke="#754f1c"
   stroke-width="0.9827"
   stroke-miterlimit="10"
   width="11.335"
   height="6.829"
   id="rect130" />
		
			<rect
   x="160.718"
   y="60.283001"
   transform="matrix(1,-0.0016,0.0016,1,-0.0986,0.2581)"
   fill="#e4943a"
   stroke="#754f1c"
   stroke-width="0.9827"
   stroke-miterlimit="10"
   width="11.334"
   height="6.829"
   id="rect131" />
		
			<rect
   x="172.005"
   y="60.264999"
   transform="matrix(1,-0.0016,0.0016,1,-0.0985,0.2756)"
   fill="#e4943a"
   stroke="#754f1c"
   stroke-width="0.9827"
   stroke-miterlimit="10"
   width="11.335"
   height="6.829"
   id="rect132" />
		
			<rect
   x="183.34"
   y="60.247002"
   transform="matrix(1,-0.0016,0.0016,1,-0.0985,0.2932)"
   fill="#e4943a"
   stroke="#754f1c"
   stroke-width="0.9827"
   stroke-miterlimit="10"
   width="11.333"
   height="6.8299999"
   id="rect133" />
		
			<rect
   x="194.673"
   y="60.227001"
   transform="matrix(1,-0.0017,0.0017,1,-0.1094,0.3453)"
   fill="#e4943a"
   stroke="#754f1c"
   stroke-width="0.9827"
   stroke-miterlimit="10"
   width="11.334"
   height="6.8309999"
   id="rect134" />
		
			<rect
   x="205.645"
   y="60.210999"
   transform="matrix(1,-0.0016,0.0016,1,-0.0984,0.3278)"
   fill="#e4943a"
   stroke="#754f1c"
   stroke-width="0.9827"
   stroke-miterlimit="10"
   width="11.333"
   height="6.8280001"
   id="rect135" />
		
			<rect
   x="216.933"
   y="60.193001"
   transform="matrix(1,-0.0016,0.0016,1,-0.0984,0.3453)"
   fill="#e4943a"
   stroke="#754f1c"
   stroke-width="0.9827"
   stroke-miterlimit="10"
   width="11.334"
   height="6.829"
   id="rect136" />
		
			<rect
   x="228.267"
   y="60.174999"
   transform="matrix(1,-0.0016,0.0016,1,-0.0984,0.3629)"
   fill="#e4943a"
   stroke="#754f1c"
   stroke-width="0.9827"
   stroke-miterlimit="10"
   width="11.333"
   height="6.829"
   id="rect137" />
		
			<rect
   x="239.60001"
   y="60.158001"
   transform="matrix(1,-0.0016,0.0016,1,-0.0983,0.3805)"
   fill="#e4943a"
   stroke="#754f1c"
   stroke-width="0.9827"
   stroke-miterlimit="10"
   width="11.333"
   height="6.829"
   id="rect138" />
		
			<rect
   x="250.57201"
   y="60.139999"
   transform="matrix(1,-0.0016,0.0016,1,-0.0983,0.3975)"
   fill="#e4943a"
   stroke="#754f1c"
   stroke-width="0.9827"
   stroke-miterlimit="10"
   width="11.334"
   height="6.829"
   id="rect139" />
	</g>
</g>

</svg>
