<?xml version="1.0" encoding="UTF-8" standalone="no"?>
<!-- Created with Inkscape (http://www.inkscape.org/) -->

<svg
   width="19.22687mm"
   height="22.713749mm"
   viewBox="0 0 68.126704 80.481789"
   id="svg5542"
   version="1.1"
   inkscape:version="1.3.2 (1:1.3.2+202311252150+091e20ef0f)"
   sodipodi:docname="subject-pedestrians-granny.svg"
   xmlns:inkscape="http://www.inkscape.org/namespaces/inkscape"
   xmlns:sodipodi="http://sodipodi.sourceforge.net/DTD/sodipodi-0.dtd"
   xmlns="http://www.w3.org/2000/svg"
   xmlns:svg="http://www.w3.org/2000/svg"
   xmlns:rdf="http://www.w3.org/1999/02/22-rdf-syntax-ns#"
   xmlns:cc="http://creativecommons.org/ns#"
   xmlns:dc="http://purl.org/dc/elements/1.1/">
  <defs
     id="defs5544">
    <linearGradient
       id="path1729_1_"
       gradientUnits="userSpaceOnUse"
       x1="355.32809"
       y1="-427.95459"
       x2="362.94141"
       y2="-427.95459"
       gradientTransform="matrix(1,0.0045,0.0045,-1,130.6441,-180.8875)">
      <stop
         offset="0"
         style="stop-color:#838282"
         id="stop594" />
      <stop
         offset="0.3762"
         style="stop-color:#B0B0AF"
         id="stop596" />
      <stop
         offset="0.5495"
         style="stop-color:#EBEBEB"
         id="stop598" />
      <stop
         offset="0.7228"
         style="stop-color:#9D9C9C"
         id="stop600" />
      <stop
         offset="0.7871"
         style="stop-color:#EBEBEB"
         id="stop602" />
      <stop
         offset="0.8465"
         style="stop-color:#B0B0AF"
         id="stop604" />
      <stop
         offset="1"
         style="stop-color:#9A9A9A"
         id="stop606" />
    </linearGradient>
    <radialGradient
       id="polygon1794_1_"
       cx="355.62399"
       cy="-374.78421"
       r="9.3439999"
       gradientTransform="matrix(1,0.0045,0.0045,-1,130.6441,-180.8875)"
       gradientUnits="userSpaceOnUse">
      <stop
         offset="0"
         style="stop-color:#EBEBEB"
         id="stop639" />
      <stop
         offset="1"
         style="stop-color:#B0B0AF"
         id="stop641" />
    </radialGradient>
    <radialGradient
       id="polygon1805_1_"
       cx="353.29489"
       cy="-374.54001"
       r="6.0510998"
       gradientTransform="matrix(1,0.0045,0.0045,-1,130.6441,-180.8875)"
       gradientUnits="userSpaceOnUse">
      <stop
         offset="0.005"
         style="stop-color:#9A9A9A"
         id="stop647" />
      <stop
         offset="1"
         style="stop-color:#414140"
         id="stop649" />
    </radialGradient>
    <radialGradient
       id="polygon1816_1_"
       cx="348.81979"
       cy="-369.77591"
       r="4.4991002"
       gradientTransform="matrix(1,0.0045,0.0045,-1,130.6441,-180.8875)"
       gradientUnits="userSpaceOnUse">
      <stop
         offset="0.005"
         style="stop-color:#9A9A9A"
         id="stop655" />
      <stop
         offset="1"
         style="stop-color:#414140"
         id="stop657" />
    </radialGradient>
    <radialGradient
       id="polygon1829_1_"
       cx="373.11179"
       cy="-377.06689"
       r="3.0778999"
       gradientTransform="matrix(1,0.0045,0.0045,-1,130.6441,-180.8875)"
       gradientUnits="userSpaceOnUse">
      <stop
         offset="0.005"
         style="stop-color:#9A9A9A"
         id="stop664" />
      <stop
         offset="1"
         style="stop-color:#414140"
         id="stop666" />
    </radialGradient>
    <radialGradient
       id="polygon1840_1_"
       cx="323.02539"
       cy="-377.17819"
       r="3.7600999"
       gradientTransform="matrix(1,0.0045,0.0045,-1,130.6441,-180.8875)"
       gradientUnits="userSpaceOnUse">
      <stop
         offset="0.005"
         style="stop-color:#9A9A9A"
         id="stop672" />
      <stop
         offset="1"
         style="stop-color:#414140"
         id="stop674" />
    </radialGradient>
    <radialGradient
       id="polygon1849_1_"
       cx="349.14359"
       cy="-438.15869"
       r="5.0700998"
       gradientTransform="matrix(1,0.0045,0.0045,-1,130.6441,-180.8875)"
       gradientUnits="userSpaceOnUse">
      <stop
         offset="0.005"
         style="stop-color:#9A9A9A"
         id="stop679" />
      <stop
         offset="1"
         style="stop-color:#414140"
         id="stop681" />
    </radialGradient>
    <radialGradient
       id="path1860_1_"
       cx="351.5625"
       cy="-410.63531"
       r="16.318701"
       gradientTransform="matrix(1,0.0045,0.0045,-1,130.6441,-180.8875)"
       gradientUnits="userSpaceOnUse">
      <stop
         offset="0.005"
         style="stop-color:#9A9A9A"
         id="stop687" />
      <stop
         offset="1"
         style="stop-color:#414140"
         id="stop689" />
    </radialGradient>
    <radialGradient
       id="circle1932_1_"
       cx="351.8999"
       cy="-412.64111"
       r="6.7321"
       gradientTransform="matrix(1,0.0045,0.0045,-1,130.6441,-180.8875)"
       gradientUnits="userSpaceOnUse">
      <stop
         offset="0"
         style="stop-color:#FFEC00"
         id="stop726" />
      <stop
         offset="1"
         style="stop-color:#DB8F1B"
         id="stop728" />
    </radialGradient>
    <linearGradient
       id="polygon569_1_"
       gradientUnits="userSpaceOnUse"
       x1="671.02692"
       y1="103.1025"
       x2="677.48779"
       y2="103.1025"
       gradientTransform="matrix(0.988,-0.1545,-0.1545,-0.988,-166.6847,324.2641)">
      <stop
         offset="0"
         style="stop-color:#838282"
         id="stop280" />
      <stop
         offset="0.3762"
         style="stop-color:#B0B0AF"
         id="stop282" />
      <stop
         offset="0.5495"
         style="stop-color:#EBEBEB"
         id="stop284" />
      <stop
         offset="0.7228"
         style="stop-color:#9D9C9C"
         id="stop286" />
      <stop
         offset="0.7871"
         style="stop-color:#EBEBEB"
         id="stop288" />
      <stop
         offset="0.8465"
         style="stop-color:#B0B0AF"
         id="stop290" />
      <stop
         offset="1"
         style="stop-color:#9A9A9A"
         id="stop292" />
    </linearGradient>
    <linearGradient
       id="polygon596_1_"
       gradientUnits="userSpaceOnUse"
       x1="1050.8843"
       y1="39.498501"
       x2="1057.3433"
       y2="39.498501"
       gradientTransform="matrix(-0.9841,-0.1775,0.1775,-0.9841,1489.5586,343.9195)">
      <stop
         offset="0"
         style="stop-color:#838282"
         id="stop301" />
      <stop
         offset="0.3762"
         style="stop-color:#B0B0AF"
         id="stop303" />
      <stop
         offset="0.5495"
         style="stop-color:#EBEBEB"
         id="stop305" />
      <stop
         offset="0.7228"
         style="stop-color:#9D9C9C"
         id="stop307" />
      <stop
         offset="0.7871"
         style="stop-color:#EBEBEB"
         id="stop309" />
      <stop
         offset="0.8465"
         style="stop-color:#B0B0AF"
         id="stop311" />
      <stop
         offset="1"
         style="stop-color:#9A9A9A"
         id="stop313" />
    </linearGradient>
    <linearGradient
       id="path617_1_"
       gradientUnits="userSpaceOnUse"
       x1="640.09332"
       y1="61.517101"
       x2="661.12738"
       y2="61.517101"
       gradientTransform="matrix(0.9999,0.0117,0.0117,-0.9999,-180.1693,178.8716)">
      <stop
         offset="0"
         style="stop-color:#4D4D4D"
         id="stop320" />
      <stop
         offset="0.2376"
         style="stop-color:#4D4D4D"
         id="stop322" />
      <stop
         offset="0.4208"
         style="stop-color:#808080"
         id="stop324" />
      <stop
         offset="0.5693"
         style="stop-color:#808080"
         id="stop326" />
      <stop
         offset="0.7525"
         style="stop-color:#4D4D4D"
         id="stop328" />
      <stop
         offset="1"
         style="stop-color:#4D4D4D"
         id="stop330" />
    </linearGradient>
    <linearGradient
       id="path632_1_"
       gradientUnits="userSpaceOnUse"
       x1="492.73581"
       y1="199.269"
       x2="532.54248"
       y2="199.269"
       gradientTransform="matrix(0.4521,0.892,0.892,-0.4521,61.5958,-242.14)">
      <stop
         offset="0.005"
         style="stop-color:#262626"
         id="stop334" />
      <stop
         offset="0.2376"
         style="stop-color:#333333"
         id="stop336" />
      <stop
         offset="0.4208"
         style="stop-color:#595959"
         id="stop338" />
      <stop
         offset="0.5693"
         style="stop-color:#595959"
         id="stop340" />
      <stop
         offset="0.7525"
         style="stop-color:#333333"
         id="stop342" />
      <stop
         offset="1"
         style="stop-color:#262626"
         id="stop344" />
    </linearGradient>
    <linearGradient
       id="path653_1_"
       gradientUnits="userSpaceOnUse"
       x1="639.24762"
       y1="145.4424"
       x2="660.28369"
       y2="145.4424"
       gradientTransform="matrix(0.9999,0.0117,0.0117,-0.9999,-180.1693,178.8716)">
      <stop
         offset="0"
         style="stop-color:#4D4D4D"
         id="stop351" />
      <stop
         offset="0.2376"
         style="stop-color:#4D4D4D"
         id="stop353" />
      <stop
         offset="0.4208"
         style="stop-color:#808080"
         id="stop355" />
      <stop
         offset="0.5693"
         style="stop-color:#808080"
         id="stop357" />
      <stop
         offset="0.7525"
         style="stop-color:#4D4D4D"
         id="stop359" />
      <stop
         offset="1"
         style="stop-color:#4D4D4D"
         id="stop361" />
    </linearGradient>
    <linearGradient
       id="path668_1_"
       gradientUnits="userSpaceOnUse"
       x1="417.93701"
       y1="237.3335"
       x2="457.74759"
       y2="237.3335"
       gradientTransform="matrix(0.4521,0.892,0.892,-0.4521,61.5958,-242.14)">
      <stop
         offset="0.005"
         style="stop-color:#262626"
         id="stop365" />
      <stop
         offset="0.2376"
         style="stop-color:#333333"
         id="stop367" />
      <stop
         offset="0.4208"
         style="stop-color:#595959"
         id="stop369" />
      <stop
         offset="0.5693"
         style="stop-color:#595959"
         id="stop371" />
      <stop
         offset="0.7525"
         style="stop-color:#333333"
         id="stop373" />
      <stop
         offset="1"
         style="stop-color:#262626"
         id="stop375" />
    </linearGradient>
    <radialGradient
       id="path697_1_"
       cx="660.37262"
       cy="60.535198"
       r="10.6748"
       gradientTransform="matrix(0.9999,0.0117,0.0117,-0.9999,-180.1693,178.8716)"
       gradientUnits="userSpaceOnUse">
      <stop
         offset="0.005"
         style="stop-color:#EFBEC1"
         id="stop390" />
      <stop
         offset="1"
         style="stop-color:#C20E1A"
         id="stop392" />
    </radialGradient>
    <radialGradient
       id="path708_1_"
       cx="655.19092"
       cy="146.8037"
       r="10.387"
       gradientTransform="matrix(0.9999,0.0117,0.0117,-0.9999,-180.1693,178.8716)"
       gradientUnits="userSpaceOnUse">
      <stop
         offset="0.005"
         style="stop-color:#EFBEC1"
         id="stop398" />
      <stop
         offset="1"
         style="stop-color:#C20E1A"
         id="stop400" />
    </radialGradient>
    <radialGradient
       id="path719_1_"
       cx="658.41357"
       cy="65.981903"
       r="10.7354"
       gradientTransform="matrix(0.9999,0.0117,0.0117,-0.9999,-180.1693,178.8716)"
       gradientUnits="userSpaceOnUse">
      <stop
         offset="0"
         style="stop-color:#EBEBEB"
         id="stop406" />
      <stop
         offset="1"
         style="stop-color:#B0B0AF"
         id="stop408" />
    </radialGradient>
    <radialGradient
       id="path730_1_"
       cx="655.5415"
       cy="76.756302"
       r="12.101"
       gradientTransform="matrix(0.9999,0.0117,0.0117,-0.9999,-180.1693,178.8716)"
       gradientUnits="userSpaceOnUse">
      <stop
         offset="0.005"
         style="stop-color:#9A9A9A"
         id="stop414" />
      <stop
         offset="1"
         style="stop-color:#414140"
         id="stop416" />
    </radialGradient>
    <radialGradient
       id="path741_1_"
       cx="664.59521"
       cy="119.3853"
       r="8.4793997"
       gradientTransform="matrix(0.9999,0.0117,0.0117,-0.9999,-180.1693,178.8716)"
       gradientUnits="userSpaceOnUse">
      <stop
         offset="0.005"
         style="stop-color:#EFBEC1"
         id="stop422" />
      <stop
         offset="1"
         style="stop-color:#C20E1A"
         id="stop424" />
    </radialGradient>
    <radialGradient
       id="path758_1_"
       cx="658.8208"
       cy="109.0659"
       r="9.7403002"
       gradientTransform="matrix(0.9999,0.0117,0.0117,-0.9999,-180.1693,178.8716)"
       gradientUnits="userSpaceOnUse">
      <stop
         offset="0.005"
         style="stop-color:#EFBEC1"
         id="stop433" />
      <stop
         offset="1"
         style="stop-color:#C20E1A"
         id="stop435" />
    </radialGradient>
    <linearGradient
       id="circle769_1_"
       gradientUnits="userSpaceOnUse"
       x1="649.09619"
       y1="107.0581"
       x2="652.32843"
       y2="107.5026"
       gradientTransform="matrix(0.9999,0.0117,0.0117,-0.9999,-180.1693,178.8716)">
      <stop
         offset="0"
         style="stop-color:#B4B4B3"
         id="stop441" />
      <stop
         offset="1"
         style="stop-color:#DEDEDE"
         id="stop443" />
    </linearGradient>
    <radialGradient
       id="path922_1_"
       cx="654.65277"
       cy="135.63229"
       r="9.4757004"
       gradientTransform="matrix(0.9999,0.0117,0.0117,-0.9999,-180.1693,178.8716)"
       gradientUnits="userSpaceOnUse">
      <stop
         offset="0.005"
         style="stop-color:#EFBEC1"
         id="stop520" />
      <stop
         offset="1"
         style="stop-color:#C20E1A"
         id="stop522" />
    </radialGradient>
    <radialGradient
       id="path941_1_"
       cx="671.13037"
       cy="128.166"
       r="4.0580001"
       gradientTransform="matrix(0.9999,0.0117,0.0117,-0.9999,-180.1693,178.8716)"
       gradientUnits="userSpaceOnUse">
      <stop
         offset="0.005"
         style="stop-color:#EFBEC1"
         id="stop532" />
      <stop
         offset="1"
         style="stop-color:#C20E1A"
         id="stop534" />
    </radialGradient>
    <radialGradient
       id="path1007_1_"
       cx="654.8374"
       cy="93.175797"
       r="2.9737999"
       gradientTransform="matrix(0.9999,0.0117,0.0117,-0.9999,-180.1693,178.8716)"
       gradientUnits="userSpaceOnUse">
      <stop
         offset="0"
         style="stop-color:#F5F5F5"
         id="stop568" />
      <stop
         offset="1"
         style="stop-color:#009CDF"
         id="stop570" />
    </radialGradient>
    <radialGradient
       id="path1014_1_"
       cx="657.05322"
       cy="87.335403"
       r="7.4780998"
       gradientTransform="matrix(0.9999,0.0117,0.0117,-0.9999,-180.1693,178.8716)"
       gradientUnits="userSpaceOnUse">
      <stop
         offset="0"
         style="stop-color:#F5F5F5"
         id="stop574" />
      <stop
         offset="1"
         style="stop-color:#009CDF"
         id="stop576" />
    </radialGradient>
    <radialGradient
       id="path1025_1_"
       cx="656.04437"
       cy="88.138702"
       r="7.2631001"
       gradientTransform="matrix(0.9999,0.0117,0.0117,-0.9999,-180.1693,178.8716)"
       gradientUnits="userSpaceOnUse">
      <stop
         offset="0.3713"
         style="stop-color:#F0F7FD"
         id="stop580" />
      <stop
         offset="0.4109"
         style="stop-color:#D7EAFA"
         id="stop582" />
      <stop
         offset="0.9307"
         style="stop-color:#C3E0F8"
         id="stop584" />
      <stop
         offset="1"
         style="stop-color:#A9D4F4"
         id="stop586" />
    </radialGradient>
  </defs>
  <sodipodi:namedview
     id="base"
     pagecolor="#ffffff"
     bordercolor="#666666"
     borderopacity="1.0"
     inkscape:pageopacity="0.0"
     inkscape:pageshadow="2"
     inkscape:zoom="11.850253"
     inkscape:cx="45.020135"
     inkscape:cy="43.416794"
     inkscape:document-units="px"
     inkscape:current-layer="layer1"
     showgrid="false"
     inkscape:snap-global="false"
     fit-margin-top="0"
     fit-margin-left="0"
     fit-margin-right="0"
     fit-margin-bottom="0"
     inkscape:window-width="1920"
     inkscape:window-height="1008"
     inkscape:window-x="0"
     inkscape:window-y="0"
     inkscape:window-maximized="1"
     inkscape:showpageshadow="2"
     inkscape:pagecheckerboard="0"
     inkscape:deskcolor="#d1d1d1" />
  <metadata
     id="metadata5547">
    <rdf:RDF>
      <cc:Work
         rdf:about="">
        <dc:format>image/svg+xml</dc:format>
        <dc:type
           rdf:resource="http://purl.org/dc/dcmitype/StillImage" />
      </cc:Work>
    </rdf:RDF>
  </metadata>
  <g
     inkscape:label="Calque 1"
     inkscape:groupmode="layer"
     id="layer1"
     transform="translate(469.07144,-591.86218)">
    <g
       transform="translate(-633.38013,258.62584)"
       id="grand-mère_panier_1_">
      <g
         id="g1597">
        <polygon
           style="fill:none;stroke:#4b4b4a;stroke-width:2;stroke-linejoin:bevel;stroke-miterlimit:10"
           id="polygon1599"
           stroke-miterlimit="10"
           points="219.152,373.685 212.259,378.189 208.329,376.664 201.595,364.155 202.089,360.841 207.752,357.613 210.583,357.75 219.797,370.712 " />
        <polygon
           style="fill:#c0a413"
           id="polygon1601"
           points="219.152,373.685 212.259,378.189 208.329,376.664 201.595,364.155 202.089,360.841 207.752,357.613 210.583,357.75 219.797,370.712 " />
      </g>
      <g
         id="g1603">
        <polygon
           style="fill:none;stroke:#4b4b4a;stroke-width:2;stroke-linejoin:bevel;stroke-miterlimit:10"
           id="polygon1605"
           stroke-miterlimit="10"
           points="203.584,366.128 203.523,362.248 208.281,359.599 209.886,360.052 217.386,370.555 217.394,372.933 210.85,376.244 " />
        <polygon
           style="fill:#7c710d"
           id="polygon1607"
           points="203.584,366.128 203.523,362.248 208.281,359.599 209.886,360.052 217.386,370.555 217.394,372.933 210.85,376.244 " />
      </g>
      <g
         id="g1609">
        <polygon
           style="fill:none;stroke:#4b4b4a;stroke-width:2;stroke-linejoin:bevel;stroke-miterlimit:10"
           id="polygon1611"
           stroke-miterlimit="10"
           points="207.024,362.292 205.548,364.347 207.198,366.43 210.131,365.321 208.873,362.882 " />
        <polygon
           style="fill:#b8aa8b"
           id="polygon1613"
           points="207.024,362.292 205.548,364.347 207.198,366.43 210.131,365.321 208.873,362.882 " />
      </g>
      <g
         id="g1615">
        <polygon
           style="fill:none;stroke:#4b4b4a;stroke-width:2;stroke-linejoin:bevel;stroke-miterlimit:10"
           id="polygon1617"
           stroke-miterlimit="10"
           points="202.91,365.88 203.889,368.212 206.527,367.894 207.117,364.816 204.379,364.612 " />
        <polygon
           style="fill:#b8aa8b"
           id="polygon1619"
           points="202.91,365.88 203.889,368.212 206.527,367.894 207.117,364.816 204.379,364.612 " />
      </g>
      <g
         id="g1621">
        <polygon
           style="fill:none;stroke:#4b4b4a;stroke-width:2;stroke-linejoin:bevel;stroke-miterlimit:10"
           id="polygon1623"
           stroke-miterlimit="10"
           points="200.861,363.528 203.105,364.698 204.932,362.766 203.418,360.022 201.182,361.614 " />
        <polygon
           style="fill:#b8aa8b"
           id="polygon1625"
           points="200.861,363.528 203.105,364.698 204.932,362.766 203.418,360.022 201.182,361.614 " />
      </g>
      <g
         id="g1627">
        <polygon
           style="fill:none;stroke:#4b4b4a;stroke-width:2;stroke-linejoin:bevel;stroke-miterlimit:10"
           id="polygon1629"
           stroke-miterlimit="10"
           points="210.41,354.446 212.439,364.182 210.194,366.576 209.008,365.266 204.273,354.524 206.826,353.521 210.178,364.322 207.775,354.569 " />
        <polygon
           style="fill:#95a438"
           id="polygon1631"
           points="210.41,354.446 212.439,364.182 210.194,366.576 209.008,365.266 204.273,354.524 206.826,353.521 210.178,364.322 207.775,354.569 " />
      </g>
      <g
         id="g1633">
        <polygon
           style="fill:none;stroke:#4b4b4a;stroke-width:2;stroke-linejoin:bevel;stroke-miterlimit:10"
           id="polygon1635"
           stroke-miterlimit="10"
           points="219.263,368.966 215.656,368.072 219.542,369.903 221.176,372.638 218.263,372.505 213.647,368.837 215.688,366.893 220.299,366.054 223.389,368.856 " />
        <polygon
           style="fill:#c77b22"
           id="polygon1637"
           points="219.263,368.966 215.656,368.072 219.542,369.903 221.176,372.638 218.263,372.505 213.647,368.837 215.688,366.893 220.299,366.054 223.389,368.856 " />
      </g>
      <g
         id="g1639">
        <polygon
           style="fill:none;stroke:#4b4b4a;stroke-width:2;stroke-linejoin:bevel;stroke-miterlimit:10"
           id="polygon1641"
           stroke-miterlimit="10"
           points="215.973,374.248 214.337,370.91 215.436,375.065 214.395,378.076 212.623,375.761 212.458,369.869 215.259,370.177 218.87,373.166 218.714,377.333 " />
        <polygon
           style="fill:#c77b22"
           id="polygon1643"
           points="215.973,374.248 214.337,370.91 215.436,375.065 214.395,378.076 212.623,375.761 212.458,369.869 215.259,370.177 218.87,373.166 218.714,377.333 " />
      </g>
      <g
         id="g1645">
        <polygon
           style="fill:none;stroke:#4b4b4a;stroke-width:2;stroke-linejoin:bevel;stroke-miterlimit:10"
           id="polygon1647"
           stroke-miterlimit="10"
           points="214.705,363.917 215.886,365.351 212.413,368.186 211.859,365.822 " />
        <polygon
           style="fill:#c0a413"
           id="polygon1649"
           points="214.705,363.917 215.886,365.351 212.413,368.186 211.859,365.822 " />
      </g>
      <g
         id="g1651">
        <polygon
           style="fill:none;stroke:#4b4b4a;stroke-width:2;stroke-linejoin:bevel;stroke-miterlimit:10"
           id="polygon1653"
           stroke-miterlimit="10"
           points="176.642,364.277 178.531,364.869 180.388,355.867 179.319,355.564 " />
        <polygon
           style="fill:#cba59d"
           id="polygon1655"
           points="176.642,364.277 178.531,364.869 180.388,355.867 179.319,355.564 " />
      </g>
      <g
         id="g1657">
        <polygon
           style="fill:none;stroke:#4b4b4a;stroke-width:2;stroke-linejoin:bevel;stroke-miterlimit:10"
           id="polygon1659"
           stroke-miterlimit="10"
           points="210.526,365.757 207.307,366.769 207.202,368.933 209.881,368.73 206.819,369.916 208.007,372.977 213.19,372.728 213.093,367.884 " />
        <polygon
           style="fill:#d8c9b0"
           id="polygon1661"
           points="210.526,365.757 207.307,366.769 207.202,368.933 209.881,368.73 206.819,369.916 208.007,372.977 213.19,372.728 213.093,367.884 " />
      </g>
      <g
         id="g1663">
        <polygon
           style="fill:none;stroke:#4b4b4a;stroke-width:2;stroke-linejoin:bevel;stroke-miterlimit:10"
           id="polygon1665"
           stroke-miterlimit="10"
           points="186.045,357.893 189.639,356.065 191.715,358.001 191.479,362.83 186.343,362.08 " />
        <polygon
           style="fill:#f9f0f3"
           id="polygon1667"
           points="186.045,357.893 189.639,356.065 191.715,358.001 191.479,362.83 186.343,362.08 " />
      </g>
      <g
         id="g1669">
        <polygon
           style="fill:none;stroke:#4b4b4a;stroke-width:2;stroke-linejoin:bevel;stroke-miterlimit:10"
           id="polygon1671"
           stroke-miterlimit="10"
           points="200.036,392.781 195.002,393.371 194.712,389.018 199.889,388.935 " />
        <polygon
           style="fill:#f9f0f3"
           id="polygon1673"
           points="200.036,392.781 195.002,393.371 194.712,389.018 199.889,388.935 " />
      </g>
      <g
         id="g1675">
        <polygon
           style="fill:none;stroke:#4b4b4a;stroke-width:2;stroke-linejoin:bevel;stroke-miterlimit:10"
           id="polygon1677"
           stroke-miterlimit="10"
           points="179.804,368.83 180.121,371.233 177.79,372.115 176.454,369.291 174.239,368.011 173.66,365.378 176.019,361.698 177.86,363.3 180.641,363.5 " />
        <polygon
           style="fill:#d8c9b0"
           id="polygon1679"
           points="179.804,368.83 180.121,371.233 177.79,372.115 176.454,369.291 174.239,368.011 173.66,365.378 176.019,361.698 177.86,363.3 180.641,363.5 " />
      </g>
      <g
         id="g1681">
        <polygon
           style="fill:none;stroke:#4b4b4a;stroke-width:2;stroke-linejoin:bevel;stroke-miterlimit:10"
           id="polygon1683"
           stroke-miterlimit="10"
           points="181.063,378.007 177.726,378.013 174.98,372.707 175.556,367.729 179.267,366.907 181.201,368.335 181.213,371.507 182.056,367.878 183.233,364.264 186.343,362.08 191.853,362.013 194.44,367.145 194.468,363.141 201.228,364.805 206.645,370.074 207.593,374.625 204.633,377.152 208.559,375.339 208.081,371.479 211.323,369.966 213.723,372.087 213.845,376.431 210.583,381.78 207.793,380.809 210.367,382.77 203.895,385.46 199.674,389.925 195.155,390.207 182.003,382.726 178.526,378.718 " />
        <polygon
           style="fill:#f2dce8"
           id="polygon1685"
           points="181.063,378.007 177.726,378.013 174.98,372.707 175.556,367.729 179.267,366.907 181.201,368.335 181.213,371.507 182.056,367.878 183.233,364.264 186.343,362.08 191.853,362.013 194.44,367.145 194.468,363.141 201.228,364.805 206.645,370.074 207.593,374.625 204.633,377.152 208.559,375.339 208.081,371.479 211.323,369.966 213.723,372.087 213.845,376.431 210.583,381.78 207.793,380.809 210.367,382.77 203.895,385.46 199.674,389.925 195.155,390.207 182.003,382.726 178.526,378.718 " />
      </g>
      <g
         id="g1687">
        <g
           id="g1689">
          <polygon
             style="fill:none;stroke:#292929;stroke-width:2;stroke-linejoin:bevel;stroke-miterlimit:10"
             id="polygon1691"
             stroke-miterlimit="10"
             points="192.145,368.035 197.688,368.972 197.246,372.955 199.675,369.318 205.238,369.839 209.482,375.218 207.771,382.978 201.797,387.442 191.071,386.669 186.725,379.953 187.589,372.485 " />
          <polygon
             style="fill:#bfbfbf"
             id="polygon1693"
             points="192.145,368.035 197.688,368.972 197.246,372.955 199.675,369.318 205.238,369.839 209.482,375.218 207.771,382.978 201.797,387.442 191.071,386.669 186.725,379.953 187.589,372.485 " />
        </g>
        <g
           id="g1695">
          <polygon
             style="fill:none;stroke:#292929;stroke-width:2;stroke-linejoin:bevel;stroke-miterlimit:10"
             id="polygon1697"
             stroke-miterlimit="10"
             points="205.315,376.851 198.183,374.251 191.259,377.669 191.504,382.938 197.386,385.477 204.5,383.319 " />
          <polygon
             style="fill:#bfbfbf"
             id="polygon1699"
             points="205.315,376.851 198.183,374.251 191.259,377.669 191.504,382.938 197.386,385.477 204.5,383.319 " />
        </g>
        <g
           id="g1701">
          <polygon
             style="fill:none;stroke:#292929;stroke-width:2;stroke-linejoin:bevel;stroke-miterlimit:10"
             id="polygon1703"
             stroke-miterlimit="10"
             points="198.761,382.957 198.8,380.457 200.223,378.606 198.153,380.005 196.303,378.582 197.63,380.482 195.263,381.119 198.263,381.18 " />
          <polygon
             style="fill:#bfbfbf"
             id="polygon1705"
             points="198.761,382.957 198.8,380.457 200.223,378.606 198.153,380.005 196.303,378.582 197.63,380.482 195.263,381.119 198.263,381.18 " />
        </g>
      </g>
    </g>
  </g>
</svg>
