<?xml version="1.0" encoding="UTF-8" standalone="no"?>
<!-- Created with Inkscape (http://www.inkscape.org/) -->

<svg
   width="40.550438mm"
   height="40.550438mm"
   viewBox="0 0 40.550438 40.550438"
   version="1.1"
   id="svg1"
   inkscape:version="1.3.2 (1:1.3.2+202311252150+091e20ef0f)"
   sodipodi:docname="sun.svg"
   xmlns:inkscape="http://www.inkscape.org/namespaces/inkscape"
   xmlns:sodipodi="http://sodipodi.sourceforge.net/DTD/sodipodi-0.dtd"
   xmlns="http://www.w3.org/2000/svg"
   xmlns:svg="http://www.w3.org/2000/svg">
  <sodipodi:namedview
     id="namedview1"
     pagecolor="#ffffff"
     bordercolor="#000000"
     borderopacity="0.25"
     inkscape:showpageshadow="2"
     inkscape:pageopacity="0.0"
     inkscape:pagecheckerboard="0"
     inkscape:deskcolor="#d1d1d1"
     inkscape:document-units="mm"
     inkscape:zoom="2.8284271"
     inkscape:cx="-13.965359"
     inkscape:cy="93.868426"
     inkscape:window-width="1920"
     inkscape:window-height="1008"
     inkscape:window-x="0"
     inkscape:window-y="0"
     inkscape:window-maximized="1"
     inkscape:current-layer="g10" />
  <defs
     id="defs1" />
  <g
     inkscape:label="Layer 1"
     inkscape:groupmode="layer"
     id="layer1"
     transform="translate(1.7514344,-97.288041)">
    <g
       id="g10"
       transform="rotate(22.5)">
      <path
         sodipodi:type="star"
         style="fill:#d4aa00;stroke:none;stroke-width:0.3;stroke-linecap:round;stroke-linejoin:round;paint-order:fill markers stroke"
         id="path3"
         inkscape:flatsided="true"
         sodipodi:sides="3"
         sodipodi:cx="76.599297"
         sodipodi:cy="36.235371"
         sodipodi:r1="9.9164515"
         sodipodi:r2="4.9582257"
         sodipodi:arg1="0.52359878"
         sodipodi:arg2="1.5707963"
         inkscape:rounded="0"
         inkscape:randomized="0"
         d="m 85.187195,41.193596 -17.175797,0 8.587899,-14.874677 z"
         transform="rotate(90,42.639661,67.565907)"
         inkscape:tile-cx="51.382668"
         inkscape:tile-cy="53.490154"
         inkscape:tile-w="17.475775"
         inkscape:tile-h="15.174662"
         inkscape:tile-x0="42.644781"
         inkscape:tile-y0="43.423717"
         inkscape:transform-center-x="-2.4791135" />
      <path
         sodipodi:type="star"
         style="fill:#d4aa00;stroke:none;stroke-width:0.3;stroke-linecap:round;stroke-linejoin:round;paint-order:fill markers stroke"
         id="use4"
         inkscape:flatsided="true"
         sodipodi:sides="3"
         sodipodi:cx="76.599297"
         sodipodi:cy="36.235371"
         sodipodi:r1="9.9164515"
         sodipodi:r2="4.9582257"
         sodipodi:arg1="0.52359878"
         sodipodi:arg2="1.5707963"
         inkscape:rounded="0"
         inkscape:randomized="0"
         d="m 85.187195,41.193596 -17.175797,0 8.587899,-14.874677 z"
         transform="rotate(135,58.286963,71.8117)"
         inkscape:tile-x0="42.644781"
         inkscape:tile-y0="43.423717"
         inkscape:transform-center-y="-1.2832827"
         inkscape:transform-center-x="1.2832832" />
      <path
         sodipodi:type="star"
         style="fill:#d4aa00;stroke:none;stroke-width:0.3;stroke-linecap:round;stroke-linejoin:round;paint-order:fill markers stroke"
         id="use5"
         inkscape:flatsided="true"
         sodipodi:sides="3"
         sodipodi:cx="76.599297"
         sodipodi:cy="36.235371"
         sodipodi:r1="9.9164515"
         sodipodi:r2="4.9582257"
         sodipodi:arg1="0.52359878"
         sodipodi:arg2="1.5707963"
         inkscape:rounded="0"
         inkscape:randomized="0"
         d="m 85.187195,41.193596 -17.175797,0 8.587899,-14.874677 z"
         transform="rotate(180,69.351276,74.813928)"
         inkscape:tile-x0="42.644781"
         inkscape:tile-y0="43.423717"
         inkscape:transform-center-y="2.4791141" />
      <path
         sodipodi:type="star"
         style="fill:#d4aa00;stroke:none;stroke-width:0.3;stroke-linecap:round;stroke-linejoin:round;paint-order:fill markers stroke"
         id="use6"
         inkscape:flatsided="true"
         sodipodi:sides="3"
         sodipodi:cx="76.599297"
         sodipodi:cy="36.235371"
         sodipodi:r1="9.9164515"
         sodipodi:r2="4.9582257"
         sodipodi:arg1="0.52359878"
         sodipodi:arg2="1.5707963"
         inkscape:rounded="0"
         inkscape:randomized="0"
         d="m 85.187195,41.193596 -17.175797,0 8.587899,-14.874677 z"
         transform="rotate(-135.00001,80.415586,77.816154)"
         inkscape:tile-x0="42.644781"
         inkscape:tile-y0="43.423717"
         inkscape:transform-center-y="-1.2832835"
         inkscape:transform-center-x="-1.2832818" />
      <path
         sodipodi:type="star"
         style="fill:#d4aa00;stroke:none;stroke-width:0.3;stroke-linecap:round;stroke-linejoin:round;paint-order:fill markers stroke"
         id="use7"
         inkscape:flatsided="true"
         sodipodi:sides="3"
         sodipodi:cx="76.599297"
         sodipodi:cy="36.235371"
         sodipodi:r1="9.9164515"
         sodipodi:r2="4.9582257"
         sodipodi:arg1="0.52359878"
         sodipodi:arg2="1.5707963"
         inkscape:rounded="0"
         inkscape:randomized="0"
         d="m 85.187195,41.193596 -17.175797,0 8.587899,-14.874677 z"
         transform="rotate(-90,96.062892,82.061948)"
         inkscape:tile-x0="42.644781"
         inkscape:tile-y0="43.423717"
         inkscape:transform-center-x="2.479114" />
      <path
         sodipodi:type="star"
         style="fill:#d4aa00;stroke:none;stroke-width:0.3;stroke-linecap:round;stroke-linejoin:round;paint-order:fill markers stroke"
         id="use8"
         inkscape:flatsided="true"
         sodipodi:sides="3"
         sodipodi:cx="76.599297"
         sodipodi:cy="36.235371"
         sodipodi:r1="9.9164515"
         sodipodi:r2="4.9582257"
         sodipodi:arg1="0.52359878"
         sodipodi:arg2="1.5707963"
         inkscape:rounded="0"
         inkscape:randomized="0"
         d="m 85.187195,41.193596 -17.175797,0 8.587899,-14.874677 z"
         transform="rotate(-44.999991,133.83884,92.312198)"
         inkscape:tile-x0="42.644781"
         inkscape:tile-y0="43.423717"
         inkscape:transform-center-y="1.2832845"
         inkscape:transform-center-x="-1.2832849" />
      <path
         sodipodi:type="star"
         style="fill:#d4aa00;stroke:none;stroke-width:0.3;stroke-linecap:round;stroke-linejoin:round;paint-order:fill markers stroke"
         id="use9"
         inkscape:flatsided="true"
         sodipodi:sides="3"
         sodipodi:cx="76.599297"
         sodipodi:cy="36.235371"
         sodipodi:r1="9.9164515"
         sodipodi:r2="4.9582257"
         sodipodi:arg1="0.52359878"
         sodipodi:arg2="1.5707963"
         inkscape:rounded="0"
         inkscape:randomized="0"
         d="m 85.187195,41.193596 -17.175797,0 8.587899,-14.874677 z"
         transform="translate(-14.49604,53.423231)"
         inkscape:tile-x0="42.644781"
         inkscape:tile-y0="43.423717"
         inkscape:transform-center-y="-2.4791134" />
      <path
         sodipodi:type="star"
         style="fill:#d4aa00;stroke:none;stroke-width:0.3;stroke-linecap:round;stroke-linejoin:round;paint-order:fill markers stroke"
         id="use10"
         inkscape:flatsided="true"
         sodipodi:sides="3"
         sodipodi:cx="76.599297"
         sodipodi:cy="36.235371"
         sodipodi:r1="9.9164515"
         sodipodi:r2="4.9582257"
         sodipodi:arg1="0.52359878"
         sodipodi:arg2="1.5707963"
         inkscape:rounded="0"
         inkscape:randomized="0"
         d="m 85.187195,41.193596 -17.175797,0 8.587899,-14.874677 z"
         transform="rotate(45.000022,4.8637611,57.315666)"
         inkscape:tile-x0="42.644781"
         inkscape:tile-y0="43.423717"
         inkscape:transform-center-y="1.283285"
         inkscape:transform-center-x="1.2832813" />
      <circle
         style="fill:#ffcc00;stroke:#ffcc00;stroke-width:0.3;stroke-linecap:round;stroke-linejoin:round;paint-order:fill markers stroke"
         id="path1"
         cx="62.103256"
         cy="101.52554"
         r="14.364494" />
    </g>
  </g>
</svg>
