<?xml version="1.0" encoding="UTF-8" standalone="no"?>
<!-- Created with Inkscape (http://www.inkscape.org/) -->

<svg
   width="58.735844mm"
   height="40.922211mm"
   viewBox="0 0 58.735844 40.922211"
   version="1.1"
   id="svg1"
   inkscape:version="1.3.2 (1:1.3.2+202311252150+091e20ef0f)"
   sodipodi:docname="umbrella-black.svg"
   xmlns:inkscape="http://www.inkscape.org/namespaces/inkscape"
   xmlns:sodipodi="http://sodipodi.sourceforge.net/DTD/sodipodi-0.dtd"
   xmlns:xlink="http://www.w3.org/1999/xlink"
   xmlns="http://www.w3.org/2000/svg"
   xmlns:svg="http://www.w3.org/2000/svg">
  <sodipodi:namedview
     id="namedview1"
     pagecolor="#ffffff"
     bordercolor="#000000"
     borderopacity="0.25"
     inkscape:showpageshadow="2"
     inkscape:pageopacity="0.0"
     inkscape:pagecheckerboard="0"
     inkscape:deskcolor="#d1d1d1"
     inkscape:document-units="mm"
     inkscape:zoom="2.731476"
     inkscape:cx="130.14941"
     inkscape:cy="101.22732"
     inkscape:window-width="1920"
     inkscape:window-height="1008"
     inkscape:window-x="0"
     inkscape:window-y="0"
     inkscape:window-maximized="1"
     inkscape:current-layer="layer1"
     showguides="true">
    <sodipodi:guide
       position="0.060928003,22.635127"
       orientation="0,-1"
       id="guide2"
       inkscape:locked="false" />
  </sodipodi:namedview>
  <defs
     id="defs1">
    <linearGradient
       inkscape:collect="always"
       xlink:href="#linearGradient27"
       id="linearGradient28"
       x1="522.78931"
       y1="230.67645"
       x2="577.26276"
       y2="230.67645"
       gradientUnits="userSpaceOnUse"
       gradientTransform="translate(20.630407,-1.5570118)" />
    <linearGradient
       id="linearGradient27">
      <stop
         style="stop-color:#434343;stop-opacity:1;"
         offset="0"
         id="stop31" />
      <stop
         style="stop-color:#333333;stop-opacity:1;"
         offset="0.5428744"
         id="stop32" />
      <stop
         style="stop-color:#666666;stop-opacity:1;"
         offset="1"
         id="stop33" />
    </linearGradient>
    <linearGradient
       inkscape:collect="always"
       xlink:href="#linearGradient27-1"
       id="linearGradient31"
       x1="537.96674"
       y1="256.58554"
       x2="579.02435"
       y2="240.15155"
       gradientUnits="userSpaceOnUse"
       gradientTransform="translate(20.630407,-1.5570118)" />
    <linearGradient
       id="linearGradient27-1">
      <stop
         style="stop-color:#757575;stop-opacity:1;"
         offset="0"
         id="stop44" />
      <stop
         style="stop-color:#484848;stop-opacity:1;"
         offset="0.393085"
         id="stop45" />
      <stop
         style="stop-color:#434343;stop-opacity:1;"
         offset="0.67598194"
         id="stop46" />
      <stop
         style="stop-color:#666666;stop-opacity:1;"
         offset="1"
         id="stop47" />
    </linearGradient>
    <linearGradient
       inkscape:collect="always"
       xlink:href="#linearGradient27-2"
       id="linearGradient44"
       x1="559.95605"
       y1="269.47681"
       x2="585.68768"
       y2="244.56462"
       gradientUnits="userSpaceOnUse"
       gradientTransform="translate(20.630407,-1.5570118)" />
    <linearGradient
       id="linearGradient27-2">
      <stop
         style="stop-color:#5d5d5d;stop-opacity:1;"
         offset="0"
         id="stop27" />
      <stop
         style="stop-color:#484848;stop-opacity:1;"
         offset="0.32468885"
         id="stop29" />
      <stop
         style="stop-color:#373737;stop-opacity:1;"
         offset="0.57338768"
         id="stop34" />
      <stop
         style="stop-color:#4b4b4b;stop-opacity:1;"
         offset="1"
         id="stop28" />
    </linearGradient>
    <linearGradient
       inkscape:collect="always"
       xlink:href="#linearGradient27"
       id="linearGradient49"
       x1="585.44556"
       y1="282.19559"
       x2="599.48792"
       y2="252.61237"
       gradientUnits="userSpaceOnUse"
       gradientTransform="translate(20.630407,-1.5570118)" />
  </defs>
  <g
     inkscape:label="Capa 1"
     inkscape:groupmode="layer"
     id="layer1"
     transform="translate(-55.557789,-118.7594)">
    <g
       id="g49"
       transform="matrix(0.449643,-0.39726713,0.39726713,0.449643,-277.62903,252.56564)">
      <path
         style="fill:#1a1a1a;fill-opacity:1;stroke:#1a1a1a;stroke-width:0.265;stroke-linejoin:bevel;stroke-dasharray:none"
         d="m 599.24047,233.38933 -44.34692,50.11087 0.72221,0.646 44.43241,-50.20746 0.30532,-1.02364 z"
         id="path22"
         sodipodi:nodetypes="cccccc" />
      <path
         style="fill:url(#linearGradient28);stroke:#1a1a1a;stroke-width:0.265;stroke-linejoin:bevel;stroke-dasharray:none"
         d="m 551.06477,235.90406 c 16.99168,-2.7183 33.82665,-5.14278 46.75105,-0.23493 -19.25635,-13.879 -36.90124,-14.80116 -54.10893,-12.20803 4.39195,4.17561 6.50291,8.31834 7.35788,12.44296 z"
         id="path23"
         sodipodi:nodetypes="cccc" />
      <path
         style="fill:url(#linearGradient31);stroke:#1a1a1a;stroke-width:0.265;stroke-linejoin:bevel;stroke-dasharray:none"
         d="m 597.71851,235.76644 -21.88183,24.63428 c -11.73317,-14.75057 -19.40114,-21.79963 -24.77191,-24.49666 15.56272,-1.97496 31.13578,-5.68919 46.65374,-0.13762 z"
         id="path25"
         sodipodi:nodetypes="cccc" />
      <path
         style="fill:url(#linearGradient44);stroke:#1a1a1a;stroke-width:0.265;stroke-linejoin:bevel;stroke-dasharray:none"
         d="m 597.71851,235.76644 c 9.78578,12.30754 7.0054,31.40282 6.70317,46.2812 -8.89707,-9.4075 -18.3905,-16.66449 -28.48769,-21.74423 z"
         id="path26"
         sodipodi:nodetypes="cccc" />
      <path
         style="fill:url(#linearGradient49);stroke:#1a1a1a;stroke-width:0.265;stroke-linejoin:bevel;stroke-dasharray:none"
         d="m 597.81582,235.66913 c 10.22115,12.15072 20.25842,24.55649 19.16973,52.39356 -3.17993,-2.46695 -6.53728,-4.8526 -12.56387,-6.01505 -0.39198,-15.54569 3.81017,-31.31015 -6.60586,-46.37851 z"
         id="path27"
         sodipodi:nodetypes="cccc" />
    </g>
  </g>
</svg>
